<svg width="53" height="72" viewBox="0 0 53 72" fill="none" xmlns="http://www.w3.org/2000/svg">
<path d="M37.99 3.75999H38.43C38.65 3.75999 38.87 3.76 39.09 3.82L39.57 3.9C39.77 3.9 39.97 3.95999 40.17 4.00999C40.37 4.05999 40.48 4.09 40.63 4.13C40.78 4.17 41.03 4.22 41.22 4.28L41.67 4.43999L42.23 4.64C42.39 4.7 42.54 4.78 42.69 4.85L43.22 5.09C43.3709 5.16571 43.5177 5.24916 43.66 5.34C43.83 5.43 44.01 5.52 44.17 5.62L38.04 1.84C37.88 1.74 37.72 1.66 37.55 1.57L37.1 1.32C36.93 1.23 36.75 1.15999 36.58 1.07999L36.12 0.869995L35.56 0.669998L35.11 0.509995L34.52 0.360001C34.37 0.360001 34.22 0.269998 34.06 0.239998L33.46 0.129997L32.98 0.0499954H32.37L31.87 0H30.74C30.36 0 29.97 -5.79655e-06 29.59 0.0799942C29.21 0.159994 28.59 0.229996 28.02 0.339996H27.83H27.67C27.18 0.459996 26.67 0.589998 26.18 0.739998L26 0.809998C25.55 0.959998 25.1 1.13 24.64 1.32L24.43 1.39L24.25 1.48C23.79 1.68 23.33 1.89 22.86 2.13H22.79C22.31 2.38 21.79 2.66 21.33 2.95L21.17 3.05L20.42 3.52C19.98 3.81 19.54 4.12 19.11 4.43L18.69 4.75C18.4 4.97 18.11 5.19 17.82 5.43L17.63 5.57L17.46 5.73C16.86 6.23 16.27 6.75 15.69 7.29L15.5 7.48C14.92 8.03 14.35 8.61 13.8 9.22C13.7709 9.24409 13.7441 9.27087 13.72 9.3C13.33 9.73 12.94 10.18 12.56 10.63C12.45 10.75 12.35 10.88 12.25 11.01C11.97 11.34 11.7 11.68 11.43 12.01L11.04 12.52C10.8 12.84 10.56 13.16 10.33 13.52C10.2 13.69 10.07 13.87 9.95001 14.05C9.70001 14.4 9.46002 14.76 9.21002 15.13L8.98001 15.47L8.92001 15.57C8.57001 16.12 8.22001 16.67 7.92001 17.23L7.70001 17.6C7.44001 18.05 7.18002 18.51 6.93002 18.97C6.82002 19.15 6.73 19.34 6.63 19.52C6.39001 19.96 6.16 20.41 5.94 20.86L5.70001 21.33C5.41001 21.92 5.12001 22.53 4.85001 23.13L4.70001 23.49C4.48001 23.99 4.26 24.49 4.06 25L3.82001 25.59C3.64001 26.05 3.46001 26.52 3.29001 26.99C3.23001 27.17 3.16001 27.34 3.10001 27.51C2.88001 28.14 2.66002 28.78 2.46002 29.42L2.37 29.73C2.20333 30.27 2.04335 30.81 1.89001 31.35C1.83001 31.56 1.78 31.76 1.72 31.96C1.59333 32.44 1.47335 32.92 1.36002 33.4C1.31002 33.58 1.27001 33.77 1.23001 33.95C1.08001 34.6 0.940007 35.25 0.820007 35.9C0.816051 35.9766 0.816051 36.0534 0.820007 36.13C0.710007 36.71 0.609999 37.28 0.529999 37.85L0.440002 38.46L0.26001 39.89L0.200012 40.46C0.140012 41.11 0.0900183 41.76 0.0500183 42.4C0.054976 42.4432 0.054976 42.4868 0.0500183 42.53C0.0500183 43.13 0 43.73 0 44.32C0 44.52 0 44.71 0 44.91C0 45.37 0 45.84 0 46.3C0 46.49 0 46.68 0 46.87C0 47.5 0.0699951 48.12 0.119995 48.74C0.889995 56.82 4.05001 62.54 8.57001 65.33L14.7 69.11C10.18 66.32 7.02 60.6 6.25 52.52C6.2 51.9 6.16001 51.27 6.13 50.64C6.13 50.46 6.13 50.27 6.13 50.08C6.13 49.61 6.13 49.15 6.13 48.68C6.13 48.49 6.13 48.29 6.13 48.1C6.13 47.5 6.13002 46.91 6.18002 46.31C6.18458 46.2668 6.18458 46.2232 6.18002 46.18C6.18002 45.53 6.27002 44.89 6.33002 44.24C6.33002 44.05 6.32999 43.86 6.39999 43.67C6.39999 43.19 6.51001 42.67 6.57001 42.24L6.66 41.63C6.74 41.06 6.84001 40.49 6.95001 39.91C6.94521 39.8301 6.94521 39.7499 6.95001 39.67C7.07001 39.03 7.21002 38.38 7.36002 37.73C7.36002 37.54 7.45002 37.36 7.49002 37.18C7.60335 36.7 7.72334 36.22 7.85001 35.74C7.91001 35.54 7.96002 35.33 8.02002 35.13C8.17002 34.59 8.33 34.04 8.5 33.5L8.59 33.19C8.79 32.56 9.01001 31.92 9.23001 31.29L9.42001 30.77C9.59001 30.3 9.77001 29.83 9.95001 29.37L10.19 28.78C10.4 28.27 10.61 27.78 10.83 27.27L10.98 26.91C11.26 26.3 11.54 25.7 11.83 25.1L12.07 24.64C12.29 24.19 12.52 23.74 12.76 23.3L13.06 22.75C13.31 22.29 13.57 21.83 13.83 21.38C13.9 21.26 13.97 21.13 14.05 21.01C14.38 20.45 14.73 19.9 15.05 19.35L15.29 18.99C15.54 18.62 15.78 18.26 16.03 17.91C16.15 17.73 16.28 17.55 16.41 17.38C16.64 17.05 16.88 16.72 17.12 16.38L17.51 15.88C17.78 15.53 18.05 15.19 18.33 14.88C18.43 14.76 18.53 14.63 18.64 14.51C19.02 14.05 19.41 13.61 19.8 13.18L19.92 13.06C20.47 12.45 21.04 11.87 21.62 11.31L21.81 11.13C22.39 10.58 22.98 10.06 23.58 9.56L23.94 9.27C24.23 9.03 24.52 8.81 24.81 8.59L25.23 8.27C25.66 7.95 26.1 7.65 26.54 7.36C26.98 7.07 27.15 6.98 27.45 6.79C27.94 6.5 28.45 6.22 28.92 5.97H28.98C29.45 5.73 29.91 5.51 30.37 5.32L30.76 5.15C31.22 4.97 31.67 4.79 32.12 4.65L32.3 4.57999C32.8 4.41999 33.3 4.29 33.79 4.18L34.14 4.11C34.66 4 35.19 3.91 35.71 3.85C36.23 3.79 36.48 3.78 36.86 3.77H38L37.99 3.75999Z" fill="#FFB901"/>
<path d="M35.7001 3.82997C44.5201 2.82997 51.4301 9.74997 52.6201 22.25C54.2001 38.86 45.0801 59.11 32.2501 67.5C29.514 69.3841 26.3725 70.5969 23.0801 71.04C14.2601 71.99 7.34008 65.12 6.15008 52.62C4.58008 36.01 13.6901 15.76 26.5301 7.36998C29.2637 5.48114 32.4064 4.26791 35.7001 3.82997Z" fill="#FFB901"/>
<path d="M35.15 6.74001C43.2 5.87001 49.5201 12.15 50.6101 23.57C52.0501 38.73 43.72 57.24 32 64.89C29.5015 66.6162 26.6299 67.7265 23.62 68.13C15.57 68.99 9.25005 62.72 8.17005 51.3C6.73005 36.13 15.05 17.63 26.78 9.98001C29.2742 8.25256 32.1429 7.14209 35.15 6.74001Z" stroke="black" stroke-width="0.92" stroke-miterlimit="10"/>
<path d="M22.8801 34.63C22.9801 36.01 21.6001 37.88 19.8101 38.81C18.0201 39.74 16.5001 39.37 16.4001 37.99C16.3001 36.61 17.6901 34.74 19.4801 33.81C21.2701 32.88 22.7901 33.25 22.8801 34.63Z" fill="black"/>
<path d="M43.7601 23.8C43.8501 25.18 42.4801 27.05 40.6901 27.98C38.9001 28.91 37.3701 28.54 37.2801 27.16C37.1901 25.78 38.5601 23.91 40.3501 22.98C42.1401 22.05 43.6601 22.42 43.7601 23.8Z" fill="black"/>
<path d="M26.69 39.54C26.98 43.87 24.55 51.18 21.07 52.99C17.59 54.8 14.36 50.42 14.07 46.09C13.78 41.76 16.37 36.78 19.85 34.98C23.33 33.18 26.4 35.21 26.69 39.54Z" fill="black"/>
<path d="M46.9801 28.99C47.2801 33.31 44.8501 40.63 41.3601 42.44C37.8701 44.25 34.6601 39.86 34.3601 35.53C34.0601 31.2 36.6501 26.23 40.1401 24.42C43.6301 22.61 46.6901 24.68 46.9801 28.99Z" fill="black"/>
<path d="M39.7302 37.69L22.6502 46.55L21.9702 36.54L39.0602 27.67L39.7302 37.69Z" fill="black"/>
<path d="M41.7701 27.87C41.7846 28.2411 41.6996 28.6093 41.5237 28.9363C41.3479 29.2634 41.0877 29.5375 40.7701 29.73C40.1901 30.03 39.6801 29.73 39.6301 28.96C39.6163 28.5904 39.7018 28.2239 39.8777 27.8986C40.0535 27.5732 40.3134 27.3009 40.6301 27.11C41.2101 26.81 41.7201 27.15 41.7701 27.87Z" fill="white"/>
<path d="M38.8403 33.28C38.8541 33.6496 38.7686 34.0161 38.5927 34.3414C38.4169 34.6668 38.1571 34.9391 37.8403 35.13C37.2603 35.43 36.7503 35.13 36.7003 34.37C36.6858 33.9989 36.7709 33.6307 36.9467 33.3037C37.1226 32.9766 37.3828 32.7025 37.7003 32.51C38.2903 32.21 38.7903 32.55 38.8403 33.28Z" fill="white"/>
<path d="M45.2103 29.99C45.2227 30.3607 45.1367 30.7281 44.9611 31.0548C44.7854 31.3815 44.5264 31.6559 44.2103 31.85C43.6303 32.15 43.1203 31.85 43.0703 31.08C43.0543 30.71 43.1389 30.3427 43.3149 30.017C43.491 29.6913 43.752 29.4193 44.0703 29.23C44.6503 28.91 45.1603 29.25 45.2103 29.99Z" fill="white"/>
<path d="M42.2202 34.57C42.235 34.9397 42.15 35.3066 41.974 35.6322C41.7981 35.9577 41.5376 36.2298 41.2202 36.42C40.6302 36.72 40.1202 36.42 40.0702 35.66C40.0598 35.2896 40.1466 34.923 40.3221 34.5966C40.4976 34.2702 40.7555 33.9956 41.0702 33.8C41.6602 33.5 42.1702 33.84 42.2202 34.57Z" fill="white"/>
<path d="M20.9802 46.09L19.6702 46.77L19.2302 40.22L20.5402 39.54L20.9802 46.09Z" fill="white"/>
<path d="M22.6902 40.97L22.8002 42.6L17.5202 45.34L17.4102 43.71L22.6902 40.97Z" fill="white"/>
<path d="M33.7302 34.57L32.2802 35.33L32.2402 34.75L33.6902 34L33.7302 34.57Z" fill="white"/>
<path d="M28.8701 37.09L27.4201 37.85L27.3801 37.28L28.8301 36.52L28.8701 37.09Z" fill="white"/>
<path d="M34.2902 36.69C34.3174 37.0823 34.2391 37.4748 34.0632 37.8265C33.8873 38.1783 33.6204 38.4765 33.2902 38.69C32.6702 39.01 32.1302 38.69 32.0802 37.89C32.0518 37.4976 32.1297 37.1047 32.3057 36.7528C32.4816 36.4008 32.7492 36.1028 33.0802 35.89C33.6802 35.57 34.2302 35.93 34.2902 36.69Z" fill="white"/>
<path d="M29.4101 39.21C29.4407 39.6027 29.3637 39.9964 29.1876 40.3487C29.0114 40.701 28.7426 40.9988 28.4101 41.21C27.8001 41.53 27.2601 41.21 27.2101 40.4C27.1796 40.0073 27.2565 39.6136 27.4327 39.2613C27.6089 38.9089 27.8776 38.6112 28.2101 38.4C28.8201 38.09 29.3601 38.45 29.4101 39.21Z" fill="white"/>
</svg>
