<svg width="320" height="48" viewBox="0 0 320 48" fill="none" xmlns="http://www.w3.org/2000/svg">
<rect x="1" y="1" width="318" height="46" rx="3" fill="#181A20"/>
<path d="M120 23.9999L123.536 27.5354L130.607 20.4644" stroke="#00CD4B" stroke-width="2" stroke-linecap="round" stroke-linejoin="round"/>
<path d="M151.064 20.768C150.904 20.5867 150.717 20.4267 150.504 20.288C150.291 20.1387 150.051 20.0107 149.784 19.904C149.517 19.7973 149.229 19.712 148.92 19.648C148.621 19.584 148.301 19.552 147.96 19.552C146.968 19.552 146.237 19.744 145.768 20.128C145.309 20.5013 145.08 21.0133 145.08 21.664C145.08 22.112 145.187 22.464 145.4 22.72C145.624 22.976 145.971 23.184 146.44 23.344C146.909 23.504 147.507 23.6693 148.232 23.84C149.043 24.0107 149.741 24.2133 150.328 24.448C150.915 24.6827 151.368 25.0027 151.688 25.408C152.008 25.8027 152.168 26.3413 152.168 27.024C152.168 27.5467 152.067 28 151.864 28.384C151.661 28.768 151.379 29.088 151.016 29.344C150.653 29.6 150.221 29.792 149.72 29.92C149.219 30.0373 148.669 30.096 148.072 30.096C147.485 30.096 146.92 30.0373 146.376 29.92C145.843 29.792 145.336 29.6107 144.856 29.376C144.376 29.1307 143.928 28.8213 143.512 28.448L144.072 27.536C144.275 27.7493 144.515 27.952 144.792 28.144C145.08 28.3253 145.395 28.4907 145.736 28.64C146.088 28.7893 146.461 28.9067 146.856 28.992C147.261 29.0667 147.677 29.104 148.104 29.104C149.011 29.104 149.715 28.9387 150.216 28.608C150.728 28.2773 150.984 27.7867 150.984 27.136C150.984 26.6667 150.856 26.2933 150.6 26.016C150.344 25.728 149.96 25.4933 149.448 25.312C148.936 25.1307 148.307 24.9547 147.56 24.784C146.771 24.6027 146.104 24.4 145.56 24.176C145.016 23.952 144.605 23.6587 144.328 23.296C144.061 22.9227 143.928 22.432 143.928 21.824C143.928 21.12 144.099 20.528 144.44 20.048C144.792 19.5573 145.272 19.1893 145.88 18.944C146.488 18.688 147.187 18.56 147.976 18.56C148.477 18.56 148.941 18.6133 149.368 18.72C149.805 18.816 150.205 18.96 150.568 19.152C150.941 19.344 151.288 19.584 151.608 19.872L151.064 20.768ZM153.839 26.56V21.664H154.927V26.368C154.927 27.3173 155.087 28.0267 155.407 28.496C155.737 28.9653 156.223 29.2 156.863 29.2C157.289 29.2 157.7 29.1093 158.095 28.928C158.5 28.736 158.857 28.4693 159.167 28.128C159.476 27.776 159.711 27.3707 159.871 26.912V21.664H160.959V28.688C160.959 28.8373 160.991 28.9493 161.055 29.024C161.119 29.088 161.215 29.1253 161.343 29.136V30C161.215 30.0107 161.113 30.016 161.039 30.016C160.964 30.0267 160.895 30.032 160.831 30.032C160.617 30.0107 160.431 29.9253 160.271 29.776C160.121 29.6267 160.041 29.4453 160.031 29.232L159.999 28.112C159.636 28.752 159.14 29.2533 158.511 29.616C157.892 29.9787 157.22 30.16 156.495 30.16C155.62 30.16 154.959 29.856 154.511 29.248C154.063 28.64 153.839 27.744 153.839 26.56ZM167.035 30.16C166.427 30.16 165.867 30.048 165.355 29.824C164.853 29.5893 164.411 29.2693 164.027 28.864C163.653 28.4587 163.36 27.9947 163.147 27.472C162.944 26.9493 162.843 26.3947 162.843 25.808C162.843 25.0187 163.019 24.2987 163.371 23.648C163.723 22.9973 164.213 22.48 164.843 22.096C165.472 21.712 166.197 21.52 167.019 21.52C167.797 21.52 168.485 21.7013 169.083 22.064C169.68 22.416 170.123 22.896 170.411 23.504L169.355 23.84C169.12 23.4133 168.789 23.0827 168.363 22.848C167.947 22.6027 167.483 22.48 166.971 22.48C166.416 22.48 165.909 22.624 165.451 22.912C164.992 23.2 164.624 23.5947 164.347 24.096C164.08 24.5973 163.947 25.168 163.947 25.808C163.947 26.4373 164.085 27.008 164.363 27.52C164.64 28.032 165.008 28.4427 165.467 28.752C165.925 29.0507 166.432 29.2 166.987 29.2C167.349 29.2 167.696 29.136 168.027 29.008C168.368 28.88 168.661 28.7093 168.907 28.496C169.163 28.272 169.333 28.032 169.419 27.776L170.491 28.096C170.341 28.4907 170.091 28.848 169.739 29.168C169.397 29.4773 168.992 29.7227 168.523 29.904C168.064 30.0747 167.568 30.16 167.035 30.16ZM175.738 30.16C175.13 30.16 174.57 30.048 174.058 29.824C173.557 29.5893 173.114 29.2693 172.73 28.864C172.357 28.4587 172.063 27.9947 171.85 27.472C171.647 26.9493 171.546 26.3947 171.546 25.808C171.546 25.0187 171.722 24.2987 172.074 23.648C172.426 22.9973 172.917 22.48 173.546 22.096C174.175 21.712 174.901 21.52 175.722 21.52C176.501 21.52 177.189 21.7013 177.786 22.064C178.383 22.416 178.826 22.896 179.114 23.504L178.058 23.84C177.823 23.4133 177.493 23.0827 177.066 22.848C176.65 22.6027 176.186 22.48 175.674 22.48C175.119 22.48 174.613 22.624 174.154 22.912C173.695 23.2 173.327 23.5947 173.05 24.096C172.783 24.5973 172.65 25.168 172.65 25.808C172.65 26.4373 172.789 27.008 173.066 27.52C173.343 28.032 173.711 28.4427 174.17 28.752C174.629 29.0507 175.135 29.2 175.69 29.2C176.053 29.2 176.399 29.136 176.73 29.008C177.071 28.88 177.365 28.7093 177.61 28.496C177.866 28.272 178.037 28.032 178.122 27.776L179.194 28.096C179.045 28.4907 178.794 28.848 178.442 29.168C178.101 29.4773 177.695 29.7227 177.226 29.904C176.767 30.0747 176.271 30.16 175.738 30.16ZM184.425 30.16C183.828 30.16 183.273 30.048 182.761 29.824C182.249 29.5893 181.806 29.2747 181.433 28.88C181.06 28.4747 180.766 28.0107 180.553 27.488C180.35 26.9653 180.249 26.4053 180.249 25.808C180.249 25.0293 180.425 24.3147 180.777 23.664C181.14 23.0133 181.636 22.496 182.265 22.112C182.894 21.7173 183.609 21.52 184.409 21.52C185.23 21.52 185.945 21.7173 186.553 22.112C187.172 22.5067 187.657 23.0293 188.009 23.68C188.361 24.32 188.537 25.024 188.537 25.792C188.537 25.8773 188.537 25.9627 188.537 26.048C188.537 26.1227 188.532 26.1813 188.521 26.224H181.385C181.438 26.8213 181.604 27.3547 181.881 27.824C182.169 28.2827 182.537 28.6507 182.985 28.928C183.444 29.1947 183.94 29.328 184.473 29.328C185.017 29.328 185.529 29.1893 186.009 28.912C186.5 28.6347 186.841 28.272 187.033 27.824L187.977 28.08C187.806 28.4747 187.545 28.832 187.193 29.152C186.841 29.472 186.425 29.7227 185.945 29.904C185.476 30.0747 184.969 30.16 184.425 30.16ZM181.353 25.44H187.513C187.47 24.832 187.305 24.2987 187.017 23.84C186.74 23.3813 186.372 23.024 185.913 22.768C185.465 22.5013 184.969 22.368 184.425 22.368C183.881 22.368 183.385 22.5013 182.937 22.768C182.489 23.024 182.121 23.3867 181.833 23.856C181.556 24.3147 181.396 24.8427 181.353 25.44ZM192.952 30.16C192.269 30.16 191.634 30.048 191.048 29.824C190.461 29.6 189.954 29.2587 189.528 28.8L189.976 28.032C190.445 28.4693 190.914 28.7893 191.384 28.992C191.864 29.184 192.37 29.28 192.904 29.28C193.554 29.28 194.082 29.152 194.488 28.896C194.893 28.6293 195.096 28.2507 195.096 27.76C195.096 27.4293 194.994 27.1787 194.792 27.008C194.6 26.8267 194.317 26.6827 193.944 26.576C193.581 26.4587 193.144 26.336 192.632 26.208C192.056 26.048 191.57 25.8827 191.176 25.712C190.792 25.5307 190.498 25.3067 190.296 25.04C190.104 24.7627 190.008 24.4053 190.008 23.968C190.008 23.424 190.141 22.976 190.408 22.624C190.685 22.2613 191.058 21.9893 191.528 21.808C192.008 21.616 192.541 21.52 193.128 21.52C193.768 21.52 194.333 21.6213 194.824 21.824C195.314 22.0267 195.714 22.3093 196.024 22.672L195.496 23.408C195.197 23.0667 194.84 22.816 194.424 22.656C194.018 22.4853 193.565 22.4 193.064 22.4C192.722 22.4 192.397 22.448 192.088 22.544C191.778 22.6293 191.522 22.7787 191.32 22.992C191.128 23.1947 191.032 23.4773 191.032 23.84C191.032 24.1387 191.106 24.3733 191.256 24.544C191.405 24.704 191.629 24.8427 191.928 24.96C192.226 25.0667 192.594 25.184 193.032 25.312C193.661 25.4827 194.21 25.6587 194.68 25.84C195.149 26.0107 195.512 26.2347 195.768 26.512C196.024 26.7893 196.152 27.1787 196.152 27.68C196.152 28.4587 195.858 29.0667 195.272 29.504C194.685 29.9413 193.912 30.16 192.952 30.16ZM200.686 30.16C200.003 30.16 199.369 30.048 198.782 29.824C198.195 29.6 197.689 29.2587 197.262 28.8L197.71 28.032C198.179 28.4693 198.649 28.7893 199.118 28.992C199.598 29.184 200.105 29.28 200.638 29.28C201.289 29.28 201.817 29.152 202.222 28.896C202.627 28.6293 202.83 28.2507 202.83 27.76C202.83 27.4293 202.729 27.1787 202.526 27.008C202.334 26.8267 202.051 26.6827 201.678 26.576C201.315 26.4587 200.878 26.336 200.366 26.208C199.79 26.048 199.305 25.8827 198.91 25.712C198.526 25.5307 198.233 25.3067 198.03 25.04C197.838 24.7627 197.742 24.4053 197.742 23.968C197.742 23.424 197.875 22.976 198.142 22.624C198.419 22.2613 198.793 21.9893 199.262 21.808C199.742 21.616 200.275 21.52 200.862 21.52C201.502 21.52 202.067 21.6213 202.558 21.824C203.049 22.0267 203.449 22.3093 203.758 22.672L203.23 23.408C202.931 23.0667 202.574 22.816 202.158 22.656C201.753 22.4853 201.299 22.4 200.798 22.4C200.457 22.4 200.131 22.448 199.822 22.544C199.513 22.6293 199.257 22.7787 199.054 22.992C198.862 23.1947 198.766 23.4773 198.766 23.84C198.766 24.1387 198.841 24.3733 198.99 24.544C199.139 24.704 199.363 24.8427 199.662 24.96C199.961 25.0667 200.329 25.184 200.766 25.312C201.395 25.4827 201.945 25.6587 202.414 25.84C202.883 26.0107 203.246 26.2347 203.502 26.512C203.758 26.7893 203.886 27.1787 203.886 27.68C203.886 28.4587 203.593 29.0667 203.006 29.504C202.419 29.9413 201.646 30.16 200.686 30.16Z" fill="#00CD4B"/>
<rect x="1" y="1" width="318" height="46" rx="3" stroke="#00CD4B" stroke-width="2"/>
</svg>
