<svg width="240" height="72" viewBox="0 0 240 72" fill="none" xmlns="http://www.w3.org/2000/svg">
<g clip-path="url(#clip0_31_14787)">
<path d="M230.845 71.1729H9.26692C4.39443 71.1729 0.403809 67.2287 0.403809 62.4129V9.85292C0.403809 5.03712 4.39443 1.09293 9.26692 1.09293H230.845C235.717 1.09293 239.708 5.03712 239.708 9.85292V62.4129C239.708 67.2287 235.717 71.1729 230.845 71.1729Z" fill="black"/>
<path d="M230.845 2.49671C234.948 2.49671 238.288 5.79704 238.288 9.85292V62.4129C238.288 66.4688 234.948 69.7691 230.845 69.7691H9.26692C5.1633 69.7691 1.82412 66.4688 1.82412 62.4129V9.85292C1.82412 5.79704 5.1633 2.49671 9.26692 2.49671H230.845ZM230.845 1.09293H9.26692C4.39443 1.09293 0.403809 5.03712 0.403809 9.85292V62.4129C0.403809 67.2287 4.39443 71.1729 9.26692 71.1729H230.845C235.717 71.1729 239.708 67.2287 239.708 62.4129V9.85292C239.708 5.03712 235.717 1.09293 230.845 1.09293Z" fill="#A6A6A6"/>
<path d="M84.4575 19.04C84.4575 20.5029 84.0143 21.6745 83.1413 22.5483C82.1376 23.5842 80.8303 24.1054 79.2283 24.1054C77.6972 24.1054 76.3898 23.5754 75.3174 22.5308C74.2428 21.4709 73.7065 20.17 73.7065 18.6129C73.7065 17.0558 74.2428 15.755 75.3174 14.7038C76.3898 13.6504 77.6972 13.1204 79.2283 13.1204C79.9905 13.1204 80.7173 13.2759 81.4108 13.565C82.1021 13.8562 82.6649 14.2504 83.0726 14.7366L82.1464 15.6608C81.4352 14.8308 80.4669 14.4213 79.2283 14.4213C78.1115 14.4213 77.1432 14.8067 76.3212 15.5841C75.508 16.3638 75.1003 17.3734 75.1003 18.6129C75.1003 19.8524 75.508 20.8708 76.3212 21.6504C77.1432 22.4191 78.1115 22.8133 79.2283 22.8133C80.4137 22.8133 81.4108 22.4191 82.1974 21.6417C82.7159 21.127 83.0106 20.4175 83.0882 19.5108H79.2283V18.245H84.3777C84.4398 18.5187 84.4575 18.7837 84.4575 19.04Z" fill="white" stroke="white" stroke-width="0.199309" stroke-miterlimit="10"/>
<path d="M92.6268 14.6512H87.7898V17.98H92.1504V19.2459H87.7898V22.5747H92.6268V23.8646H86.4204V13.3613H92.6268V14.6512Z" fill="white" stroke="white" stroke-width="0.199309" stroke-miterlimit="10"/>
<path d="M98.3924 23.8646H97.0231V14.6512H94.0562V13.3613H101.362V14.6512H98.3924V23.8646Z" fill="white" stroke="white" stroke-width="0.199309" stroke-miterlimit="10"/>
<path d="M106.648 23.8646V13.3613H108.016V23.8646H106.648Z" fill="white" stroke="white" stroke-width="0.199309" stroke-miterlimit="10"/>
<path d="M114.076 23.8646H112.717V14.6512H109.739V13.3613H117.054V14.6512H114.076V23.8646Z" fill="white" stroke="white" stroke-width="0.199309" stroke-miterlimit="10"/>
<path d="M130.885 22.5133C129.837 23.5754 128.538 24.1054 126.989 24.1054C125.432 24.1054 124.133 23.5754 123.085 22.5133C122.039 21.4533 121.519 20.1525 121.519 18.6129C121.519 17.0733 122.039 15.7725 123.085 14.7125C124.133 13.6504 125.432 13.1204 126.989 13.1204C128.529 13.1204 129.828 13.6504 130.876 14.7213C131.931 15.79 132.451 17.0821 132.451 18.6129C132.451 20.1525 131.931 21.4533 130.885 22.5133ZM124.098 21.6329C124.887 22.4191 125.846 22.8133 126.989 22.8133C128.124 22.8133 129.092 22.4191 129.872 21.6329C130.659 20.8467 131.057 19.8371 131.057 18.6129C131.057 17.3887 130.659 16.3791 129.872 15.5929C129.092 14.8067 128.124 14.4125 126.989 14.4125C125.846 14.4125 124.887 14.8067 124.098 15.5929C123.311 16.3791 122.912 17.3887 122.912 18.6129C122.912 19.8371 123.311 20.8467 124.098 21.6329Z" fill="white" stroke="white" stroke-width="0.199309" stroke-miterlimit="10"/>
<path d="M134.372 23.8646V13.3613H136.034L141.201 21.53H141.261L141.201 19.5108V13.3613H142.568V23.8646H141.141L135.73 15.2929H135.671L135.73 17.3208V23.8646H134.372Z" fill="white" stroke="white" stroke-width="0.199309" stroke-miterlimit="10"/>
<path d="M121.182 39.2033C117.018 39.2033 113.617 42.335 113.617 46.6558C113.617 50.9417 117.018 54.1062 121.182 54.1062C125.354 54.1062 128.755 50.9417 128.755 46.6558C128.755 42.335 125.354 39.2033 121.182 39.2033ZM121.182 51.1716C118.897 51.1716 116.932 49.3079 116.932 46.6558C116.932 43.9687 118.897 42.1379 121.182 42.1379C123.466 42.1379 125.44 43.9687 125.44 46.6558C125.44 49.3079 123.466 51.1716 121.182 51.1716ZM104.676 39.2033C100.504 39.2033 97.1116 42.335 97.1116 46.6558C97.1116 50.9417 100.504 54.1062 104.676 54.1062C108.846 54.1062 112.241 50.9417 112.241 46.6558C112.241 42.335 108.846 39.2033 104.676 39.2033ZM104.676 51.1716C102.39 51.1716 100.417 49.3079 100.417 46.6558C100.417 43.9687 102.39 42.1379 104.676 42.1379C106.961 42.1379 108.926 43.9687 108.926 46.6558C108.926 49.3079 106.961 51.1716 104.676 51.1716ZM85.0356 41.4874V44.6542H92.6866C92.4629 46.4237 91.8646 47.7246 90.9473 48.6312C89.8305 49.7262 88.0911 50.9417 85.0356 50.9417C80.327 50.9417 76.64 47.1858 76.64 42.5321C76.64 37.8783 80.327 34.1225 85.0356 34.1225C87.5815 34.1225 89.4339 35.1058 90.801 36.3804L93.0589 34.1488C91.1467 32.3442 88.603 30.9579 85.0356 30.9579C78.5788 30.9579 73.1523 36.1504 73.1523 42.5321C73.1523 48.9137 78.5788 54.1062 85.0356 54.1062C88.5254 54.1062 91.1467 52.9762 93.2074 50.8563C95.319 48.7692 95.9771 45.8346 95.9771 43.465C95.9771 42.7292 95.915 42.0525 95.8042 41.4874H85.0356ZM165.349 43.9424C164.726 42.2758 162.805 39.2033 158.892 39.2033C155.014 39.2033 151.786 42.2233 151.786 46.6558C151.786 50.83 154.981 54.1062 159.264 54.1062C162.727 54.1062 164.726 52.0191 165.548 50.8037L162.978 49.1108C162.12 50.3504 160.953 51.1716 159.264 51.1716C157.587 51.1716 156.384 50.4117 155.613 48.9137L165.697 44.79L165.349 43.9424ZM155.067 46.4237C154.981 43.5504 157.325 42.0787 159.005 42.0787C160.321 42.0787 161.438 42.7292 161.81 43.6599L155.067 46.4237ZM146.871 53.6529H150.186V31.7529H146.871V53.6529ZM141.443 40.8633H141.332C140.587 39.9917 139.167 39.2033 137.368 39.2033C133.592 39.2033 130.14 42.4795 130.14 46.6799C130.14 50.8563 133.592 54.1062 137.368 54.1062C139.167 54.1062 140.587 53.3112 141.332 52.4133H141.443V53.4821C141.443 56.3313 139.903 57.8621 137.419 57.8621C135.394 57.8621 134.137 56.4167 133.619 55.2012L130.736 56.3904C131.567 58.3658 133.767 60.7967 137.419 60.7967C141.305 60.7967 144.585 58.5366 144.585 53.0375V39.6566H141.443V40.8633ZM137.651 51.1716C135.367 51.1716 133.455 49.2816 133.455 46.6799C133.455 44.0541 135.367 42.1379 137.651 42.1379C139.903 42.1379 141.678 44.0541 141.678 46.6799C141.678 49.2816 139.903 51.1716 137.651 51.1716ZM180.868 31.7529H172.94V53.6529H176.246V45.355H180.868C184.54 45.355 188.14 42.7292 188.14 38.5528C188.14 34.3787 184.531 31.7529 180.868 31.7529ZM180.954 42.3087H176.246V34.7992H180.954C183.423 34.7992 184.832 36.8249 184.832 38.5528C184.832 40.2479 183.423 42.3087 180.954 42.3087ZM201.391 39.1617C199.002 39.1617 196.518 40.2041 195.497 42.5146L198.43 43.73C199.062 42.5146 200.223 42.1204 201.45 42.1204C203.165 42.1204 204.905 43.1387 204.931 44.9367V45.1666C204.333 44.825 203.052 44.3191 201.477 44.3191C198.317 44.3191 195.098 46.0383 195.098 49.2466C195.098 52.1812 197.686 54.0712 200.595 54.0712C202.82 54.0712 204.047 53.0791 204.818 51.925H204.931V53.6178H208.124V45.217C208.124 41.3341 205.191 39.1617 201.391 39.1617ZM200.992 51.1629C199.91 51.1629 198.404 50.6329 198.404 49.3079C198.404 47.6129 200.283 46.9624 201.909 46.9624C203.365 46.9624 204.047 47.28 204.931 47.6983C204.672 49.7262 202.906 51.1629 200.992 51.1629ZM219.757 39.6413L215.957 49.1349H215.844L211.915 39.6413H208.35L214.253 52.9083L210.885 60.2908H214.34L223.435 39.6413H219.757ZM189.957 53.6529H193.272V31.7529H189.957V53.6529Z" fill="white"/>
<path d="M18.9012 14.3008C18.3804 14.8395 18.0791 15.6783 18.0791 16.7645V55.51C18.0791 56.5962 18.3804 57.435 18.9012 57.9737L19.0297 58.092L40.9969 36.3891V35.8767L19.0297 14.1738L18.9012 14.3008Z" fill="url(#paint0_linear_31_14787)"/>
<path d="M48.3114 43.6271L40.9971 36.3891V35.8767L48.3202 28.6387L48.4842 28.7329L57.1567 33.61C59.6318 34.9941 59.6318 37.2717 57.1567 38.6645L48.4842 43.5329L48.3114 43.6271Z" fill="url(#paint1_linear_31_14787)"/>
<path d="M48.4842 43.5329L40.9971 36.1329L18.9014 57.9738C19.7234 58.8279 21.064 58.9308 22.5884 58.0767L48.4842 43.5329Z" fill="url(#paint2_linear_31_14787)"/>
<path d="M48.4842 28.7329L22.5884 14.1891C21.064 13.3438 19.7234 13.4467 18.9014 14.3008L40.9971 36.1329L48.4842 28.7329Z" fill="url(#paint3_linear_31_14787)"/>
</g>
<rect x="0.5" y="1.03809" width="239" height="69.7692" rx="11.5" stroke="#FFB901"/>
<defs>
<linearGradient id="paint0_linear_31_14787" x1="39.0465" y1="55.9135" x2="9.64575" y2="26.1667" gradientUnits="userSpaceOnUse">
<stop stop-color="#00A0FF"/>
<stop offset="0.0066" stop-color="#00A1FF"/>
<stop offset="0.2601" stop-color="#00BEFF"/>
<stop offset="0.5122" stop-color="#00D2FF"/>
<stop offset="0.7604" stop-color="#00DFFF"/>
<stop offset="1" stop-color="#00E3FF"/>
</linearGradient>
<linearGradient id="paint1_linear_31_14787" x1="60.3796" y1="36.1304" x2="17.4877" y2="36.1304" gradientUnits="userSpaceOnUse">
<stop stop-color="#FFE000"/>
<stop offset="0.4087" stop-color="#FFBD00"/>
<stop offset="0.7754" stop-color="#FFA500"/>
<stop offset="1" stop-color="#FF9C00"/>
</linearGradient>
<linearGradient id="paint2_linear_31_14787" x1="44.413" y1="32.1101" x2="4.54317" y2="-8.22898" gradientUnits="userSpaceOnUse">
<stop stop-color="#FF3A44"/>
<stop offset="1" stop-color="#C31162"/>
</linearGradient>
<linearGradient id="paint3_linear_31_14787" x1="13.3394" y1="70.8642" x2="31.1431" y2="52.8511" gradientUnits="userSpaceOnUse">
<stop stop-color="#32A071"/>
<stop offset="0.0685" stop-color="#2DA771"/>
<stop offset="0.4762" stop-color="#15CF74"/>
<stop offset="0.8009" stop-color="#06E775"/>
<stop offset="1" stop-color="#00F076"/>
</linearGradient>
<clipPath id="clip0_31_14787">
<rect y="0.538086" width="240" height="70.7692" rx="12" fill="white"/>
</clipPath>
</defs>
</svg>
