<svg width="439" height="329" viewBox="0 0 439 329" fill="none" xmlns="http://www.w3.org/2000/svg">
<path d="M75.3448 311.662C75.3448 311.662 20.7248 272.855 5.00483 206.813C-10.7152 140.772 13.2848 60.6744 58.7948 20.2614C104.305 -20.1516 186.245 6.98329 222.655 40.9018L259.075 74.7506C259.075 74.7506 293.835 93.705 339.345 92.0889C384.855 90.4728 425.415 152.314 436.185 201.027C446.955 249.74 421.285 314.136 421.285 314.136L75.3448 311.662Z" fill="#FFB901"/>
<path d="M50.5247 321.568C50.5247 321.568 12.4547 300.927 2.52468 253.042C-7.40532 205.157 35.6247 161.402 39.7647 137.46C43.9047 113.517 34.7647 83.7887 72.8647 60.6442C110.965 37.4998 178.795 45.8198 204.455 40.0337C230.115 34.2476 259.905 -5.36727 311.185 3.71093C362.465 12.7891 412.185 40.0337 414.625 99.481C417.065 158.928 398.105 160.614 417.185 192.777C436.265 224.94 443.665 247.266 434.565 280.287C425.465 313.308 406.425 322.396 406.425 322.396L50.5247 321.568Z" fill="#FFA901"/>
<path d="M130.015 310.834C127.645 308.36 92.9146 239.006 131.585 175.439C170.255 111.871 267.365 119.294 306.045 144.064C344.725 168.835 363.665 201.027 367.615 234.846C371.565 268.665 345.505 321.538 345.505 321.538L130.015 310.834Z" fill="#FFB901"/>
<mask id="path-4-inside-1_31_14901" fill="white">
<path fill-rule="evenodd" clip-rule="evenodd" d="M357.725 161.881H402.345C405.107 161.881 407.345 164.115 407.345 166.869V189.096C407.345 191.851 405.107 194.084 402.345 194.084H385.366L380.035 206.674L374.712 194.084H357.725C354.964 194.084 352.725 191.851 352.725 189.096V166.869C352.725 164.115 354.964 161.881 357.725 161.881Z"/>
</mask>
<path fill-rule="evenodd" clip-rule="evenodd" d="M357.725 161.881H402.345C405.107 161.881 407.345 164.115 407.345 166.869V189.096C407.345 191.851 405.107 194.084 402.345 194.084H385.366L380.035 206.674L374.712 194.084H357.725C354.964 194.084 352.725 191.851 352.725 189.096V166.869C352.725 164.115 354.964 161.881 357.725 161.881Z" fill="black"/>
<path d="M385.366 194.084V193.084H384.704L384.445 193.694L385.366 194.084ZM380.035 206.674L379.114 207.063L380.034 209.24L380.956 207.064L380.035 206.674ZM374.712 194.084L375.633 193.695L375.374 193.084H374.712V194.084ZM402.345 160.881H357.725V162.881H402.345V160.881ZM408.345 166.869C408.345 163.56 405.657 160.881 402.345 160.881V162.881C404.556 162.881 406.345 164.669 406.345 166.869H408.345ZM408.345 189.096V166.869H406.345V189.096H408.345ZM402.345 195.084C405.657 195.084 408.345 192.405 408.345 189.096H406.345C406.345 191.296 404.556 193.084 402.345 193.084V195.084ZM385.366 195.084H402.345V193.084H385.366V195.084ZM380.956 207.064L386.287 194.474L384.445 193.694L379.114 206.284L380.956 207.064ZM373.79 194.473L379.114 207.063L380.956 206.284L375.633 193.695L373.79 194.473ZM357.725 195.084H374.712V193.084H357.725V195.084ZM351.725 189.096C351.725 192.405 354.414 195.084 357.725 195.084V193.084C355.514 193.084 353.725 191.296 353.725 189.096H351.725ZM351.725 166.869V189.096H353.725V166.869H351.725ZM357.725 160.881C354.414 160.881 351.725 163.56 351.725 166.869H353.725C353.725 164.669 355.514 162.881 357.725 162.881V160.881Z" fill="white" mask="url(#path-4-inside-1_31_14901)"/>
<path d="M379.875 172.456H392.645V174.322L398.905 170.72L392.645 167.109V168.974H379.875V172.456Z" fill="#FF8600"/>
<path d="M398.905 179.778H386.135V177.913L379.875 181.514L386.135 185.116V183.25H398.905V179.778Z" fill="white"/>
<path d="M372.035 183.06L371.425 183.28C370.26 181.917 369.291 180.4 368.545 178.771C367.923 177.096 367.585 175.329 367.545 173.543L367.985 173.364L365.285 166.909C364.759 167.318 364.314 167.823 363.975 168.396C362.445 170.969 362.605 174.93 364.135 178.791C365.665 182.651 367.315 186.103 370.315 188.268C370.934 188.774 371.649 189.151 372.417 189.377C373.184 189.603 373.989 189.674 374.785 189.585L372.035 183.06Z" fill="#FF8600"/>
<path d="M373.965 182.302L373.125 182.602L375.895 189.206C376.185 189.11 376.466 188.99 376.735 188.847C377.077 188.658 377.339 188.351 377.472 187.984C377.604 187.617 377.598 187.214 377.455 186.851L376.015 183.22C375.861 182.831 375.56 182.517 375.177 182.345C374.794 182.174 374.359 182.158 373.965 182.302Z" fill="#FF8600"/>
<path d="M367.385 165.782C367.007 165.918 366.642 166.088 366.295 166.291L369.055 172.875L369.985 172.486C370.371 172.322 370.679 172.016 370.843 171.631C371.007 171.245 371.015 170.812 370.865 170.421L369.415 166.71C369.262 166.323 368.966 166.011 368.587 165.838C368.209 165.665 367.778 165.645 367.385 165.782Z" fill="#FF8600"/>
<path d="M117.105 299.69V225.389C117.105 225.389 116.285 205.367 126.835 199.581C137.385 193.795 181.835 196.897 181.835 196.897V299.65L117.105 299.69Z" fill="white"/>
<path d="M195.765 127.344C195.765 127.344 193.075 149.84 192.035 151.696L191.035 153.561L185.865 157.063C185.865 157.063 195.795 171.099 208.005 173.374C220.215 175.648 219.175 168.386 219.175 168.386L217.315 164.465L219.795 142.997C219.795 142.997 197.625 132.921 195.765 127.344Z" fill="#FF9D8C"/>
<path d="M179.415 158.928L187.485 155.417C187.485 155.417 192.655 163.876 204.655 168.835C216.655 173.793 216.865 170.9 217.485 168.835C217.826 167.398 217.756 165.895 217.285 164.495L218.165 157.272L222.965 158.868L239.625 293.296L196.795 295.361L179.415 158.928Z" fill="white"/>
<path d="M218.935 157.412C218.935 157.412 221.835 164.086 224.525 179.768C227.215 195.451 229.695 221.877 230.315 240.044C230.935 258.21 231.315 299.69 231.315 299.69H285.315C285.945 299.69 289.665 279.26 289.665 279.26C289.665 279.26 266.075 259.098 264.835 255.796C264.005 253.591 264.425 212.799 260.905 194.014C257.385 175.229 252.835 171.448 243.315 166.77C233.515 161.931 218.935 157.412 218.935 157.412Z" fill="#FF9901"/>
<path d="M247.075 276.037C246.943 276.037 246.815 275.985 246.722 275.891C246.628 275.798 246.575 275.671 246.575 275.538C246.575 274.062 246.315 253.102 246.055 232.821C245.795 212.54 245.535 191.57 245.535 190.094C245.535 189.961 245.588 189.834 245.682 189.741C245.775 189.647 245.903 189.595 246.035 189.595C246.168 189.595 246.295 189.647 246.389 189.741C246.482 189.834 246.535 189.961 246.535 190.094C246.535 191.57 246.805 212.53 247.055 232.811C247.305 253.092 247.575 274.062 247.575 275.538C247.575 275.671 247.522 275.798 247.429 275.891C247.335 275.985 247.208 276.037 247.075 276.037Z" fill="#8593B6"/>
<path d="M139.485 270.999L139.075 299.69H201.975C201.975 299.69 204.655 275.329 203.625 273.064C202.595 270.8 139.485 270.999 139.485 270.999Z" fill="#FF9901"/>
<g style="mix-blend-mode:multiply">
<path d="M209.485 151.077C212.16 153.089 215.128 154.68 218.285 155.796L219.765 143.027C219.765 143.027 203.135 135.435 197.495 129.778C198.675 136.203 201.575 144.712 209.485 151.077Z" fill="#8E9BBB"/>
</g>
<path d="M239.185 85.445C241.968 90.5607 243.724 96.1689 244.355 101.955C245.185 111.044 244.355 134.358 236.905 144.274C229.455 154.19 213.905 151.257 206.905 145.271C200.445 139.775 194.075 133.709 192.425 121.738C190.775 109.767 195.945 87.0711 210.625 82.3225C225.305 77.5739 239.185 85.445 239.185 85.445Z" fill="#FF9D8C"/>
<path d="M257.875 286.712C257.875 286.712 257.145 286.712 256.035 286.712H255.185L251.505 286.612H250.625C249.325 286.612 248.215 286.742 247.175 286.682C246.955 286.682 246.635 286.682 246.375 286.682C246.265 286.691 246.155 286.691 246.045 286.682C245.564 286.573 245.102 286.391 244.675 286.143C237.649 284.349 230.437 283.382 223.185 283.26C213.945 283.26 205.655 283.928 204.305 282.801C202.955 281.674 202.125 270.072 210.015 269.313L219.715 272.985C219.715 272.985 241.865 270.351 249.985 276.337C258.105 282.322 257.875 286.712 257.875 286.712Z" fill="#FF9D8C"/>
<path d="M247.185 286.612C246.965 286.612 246.645 286.612 246.385 286.612C246.131 286.212 245.847 285.832 245.535 285.475C243.035 282.931 236.995 281.285 234.805 280.756C234.709 280.732 234.626 280.672 234.573 280.588C234.521 280.504 234.504 280.404 234.525 280.307C234.537 280.259 234.558 280.213 234.587 280.173C234.617 280.132 234.654 280.098 234.697 280.072C234.739 280.046 234.787 280.029 234.836 280.021C234.886 280.014 234.936 280.016 234.985 280.028C238.175 280.796 244.985 282.761 246.865 286.013C246.885 286.103 247.045 286.412 247.185 286.612Z" fill="#223A7A"/>
<path d="M251.505 286.572C251.215 286.572 250.915 286.572 250.625 286.572C247.895 281.584 243.435 280.177 237.915 278.411L237.585 278.302C237.491 278.268 237.414 278.199 237.369 278.11C237.325 278.021 237.316 277.918 237.345 277.823C237.379 277.729 237.448 277.652 237.537 277.608C237.626 277.563 237.729 277.554 237.825 277.583L238.145 277.693C243.975 279.539 248.675 281.035 251.505 286.572Z" fill="#223A7A"/>
<path d="M256.035 286.682H255.185C253.681 283.993 251.621 281.654 249.142 279.821C246.663 277.987 243.821 276.701 240.805 276.047C240.756 276.039 240.709 276.021 240.666 275.994C240.624 275.967 240.587 275.933 240.559 275.892C240.53 275.851 240.509 275.805 240.498 275.756C240.488 275.708 240.486 275.657 240.495 275.608C240.514 275.511 240.571 275.425 240.654 275.369C240.736 275.313 240.837 275.291 240.935 275.309C248.395 276.696 254.425 282.781 256.035 286.682Z" fill="#223A7A"/>
<path d="M197.415 111.552C200.771 109.639 203.474 106.765 205.175 103.302C207.079 99.7628 208.043 95.796 207.975 91.7797C207.975 91.7797 213.765 90.852 222.455 93.4358C231.145 96.0196 241.455 99.5212 250.175 94.5631C258.895 89.605 258.865 81.664 254.625 78.362C249.875 74.6609 240.455 76.9154 240.455 76.9154C240.455 76.9154 244.075 73.4138 242.105 71.3488C240.135 69.2838 233.005 71.9673 233.005 71.9673C233.005 71.9673 224.315 65.0539 207.865 65.872C191.415 66.69 183.555 78.1624 182.625 90.9517C181.695 103.741 186.345 116.55 186.345 116.55L197.415 111.552Z" fill="black"/>
<path d="M191.625 129.2C191.625 129.2 192.455 132.402 197.215 136.113C200.823 138.721 204.735 140.882 208.865 142.548L209.415 140.144C209.415 140.144 202.285 137.041 198.975 133.639C195.665 130.237 195.245 128.372 195.245 128.372L191.625 129.2Z" fill="#DEE1EB"/>
<path d="M210.245 138.358C211.691 138.272 213.118 138.71 214.265 139.592C215.412 140.474 216.2 141.74 216.485 143.156C216.745 145.151 214.905 147.306 210.605 145.381C205.255 142.987 206.415 138.537 210.245 138.358Z" fill="black"/>
<path d="M194.625 105.566C194.625 105.566 196.275 93.7049 204.245 85.6144C219.455 70.2313 232.385 71.1591 232.385 71.1591C232.385 71.1591 232.285 68.9943 227.385 67.3482C222.825 65.792 220.765 66.62 220.765 66.62C220.765 66.62 208.255 67.6176 197.695 79.3195C187.135 91.0214 186.005 105.836 186.005 105.836L194.625 105.566Z" fill="#DEE1EB"/>
<path d="M193.485 104.12C183.485 102.444 177.975 110.215 177.555 118.087C177.135 125.958 182.855 131.893 190.485 131.295C207.655 129.928 205.695 106.185 193.485 104.12Z" fill="white"/>
<path d="M188.525 123.643C187.267 123.663 186.028 123.332 184.947 122.689C183.866 122.046 182.986 121.116 182.405 120.002C181.737 118.799 181.41 117.436 181.461 116.061C181.512 114.686 181.939 113.351 182.695 112.201C182.72 112.153 182.755 112.112 182.798 112.079C182.84 112.046 182.889 112.022 182.941 112.01C182.993 111.997 183.048 111.995 183.1 112.005C183.153 112.015 183.203 112.036 183.248 112.066C183.292 112.097 183.329 112.136 183.357 112.182C183.384 112.228 183.402 112.28 183.408 112.333C183.415 112.386 183.41 112.44 183.394 112.491C183.378 112.542 183.351 112.59 183.315 112.63C182.641 113.661 182.262 114.856 182.218 116.087C182.174 117.317 182.467 118.536 183.065 119.613C183.592 120.641 184.406 121.495 185.408 122.072C186.411 122.649 187.559 122.924 188.715 122.865C189.791 122.861 190.85 122.592 191.797 122.083C192.745 121.573 193.551 120.837 194.145 119.942C194.844 118.868 195.284 117.646 195.428 116.374C195.572 115.101 195.417 113.812 194.975 112.61C194.562 111.481 193.795 110.515 192.788 109.855C191.781 109.196 190.588 108.878 189.385 108.949C189.287 108.96 189.189 108.933 189.11 108.874C189.032 108.814 188.98 108.726 188.965 108.629C188.958 108.58 188.961 108.53 188.974 108.482C188.987 108.434 189.01 108.389 189.041 108.35C189.071 108.31 189.11 108.278 189.154 108.254C189.197 108.23 189.245 108.215 189.295 108.21C190.666 108.104 192.033 108.452 193.186 109.198C194.339 109.944 195.214 111.049 195.675 112.34C196.15 113.65 196.316 115.052 196.16 116.436C196.004 117.82 195.53 119.15 194.775 120.321C194.117 121.311 193.226 122.126 192.181 122.695C191.135 123.263 189.966 123.568 188.775 123.583L188.525 123.643Z" fill="#818FB3"/>
<path d="M181.285 156.035C181.285 156.035 151.075 163.468 140.525 175.439C129.975 187.41 125.005 246.408 124.795 257.382C124.585 268.356 132.245 272.865 136.795 275.967C141.345 279.07 161.415 284.637 177.555 285.455C193.695 286.273 209.005 285.455 209.005 285.455C209.193 282.426 210.021 279.472 211.435 276.785C213.735 272.007 216.655 271.009 216.655 271.009L202.795 266.021C202.795 266.021 200.375 222.635 196.595 201.626C192.245 177.504 181.285 156.035 181.285 156.035Z" fill="#FF9901"/>
<path d="M231.345 259.118C231.276 259.114 231.208 259.097 231.145 259.068C231.024 259.013 230.93 258.914 230.884 258.79C230.837 258.667 230.841 258.53 230.895 258.409C233.725 252.045 236.655 239.535 238.305 230.766L238.445 230.058C238.945 227.474 239.565 224.261 238.325 222.077C237.695 220.949 236.265 218.495 234.885 216.091C233.505 213.687 232.115 211.333 231.735 210.634C231.005 209.287 233.305 205.696 236.625 200.758C237.525 199.421 238.295 198.264 238.745 197.486C239.935 195.491 239.145 193.575 238.235 191.41L237.925 190.662C237.095 188.667 236.155 186.602 235.245 184.677L234.185 182.252L232.715 179C229.831 172.242 226.555 165.656 222.905 159.278C222.869 159.222 222.845 159.161 222.835 159.096C222.824 159.031 222.827 158.965 222.842 158.902C222.858 158.838 222.887 158.778 222.927 158.726C222.967 158.674 223.017 158.631 223.075 158.599C223.189 158.532 223.326 158.513 223.454 158.544C223.583 158.576 223.695 158.656 223.765 158.769C227.415 165.177 230.694 171.788 233.585 178.571L235.045 181.823L236.155 184.228C237.065 186.223 238.015 188.218 238.845 190.283L239.155 191.021C240.085 193.226 241.045 195.511 239.615 198.005C239.145 198.813 238.365 200 237.455 201.327C235.725 203.9 232.115 209.307 232.615 210.185C232.985 210.864 234.325 213.178 235.755 215.602C237.185 218.026 238.565 220.431 239.195 221.588C240.615 224.122 239.955 227.574 239.425 230.277L239.285 230.975C238.685 234.168 235.505 250.528 231.805 258.848C231.763 258.933 231.697 259.003 231.615 259.051C231.533 259.099 231.439 259.122 231.345 259.118Z" fill="#8593B6"/>
<path d="M201.865 260.864C201.8 260.866 201.736 260.855 201.675 260.831C201.615 260.807 201.56 260.771 201.515 260.724C199.165 258.36 187.825 238.777 186.975 235.086C186.515 233.09 187.675 227.963 188.795 223.015C189.665 219.184 190.565 215.223 190.315 214.146C189.925 212.54 187.035 210.155 184.225 207.901C180.835 205.138 177.335 202.284 176.655 199.711C175.885 196.788 176.545 178.492 176.985 166.391C177.145 162.041 177.265 158.599 177.265 157.412C177.265 157.28 177.318 157.153 177.412 157.059C177.505 156.966 177.633 156.913 177.765 156.913C177.897 156.916 178.023 156.969 178.116 157.062C178.209 157.155 178.263 157.281 178.265 157.412C178.265 158.659 178.135 162.101 177.985 166.47C177.575 177.783 176.895 196.718 177.625 199.501C178.225 201.756 181.745 204.629 184.855 207.163C187.965 209.697 190.855 212.021 191.285 213.956C191.595 215.253 190.755 218.944 189.775 223.274C188.725 227.883 187.545 233.11 187.955 234.906C188.785 238.517 199.955 257.741 202.225 260.056C202.272 260.102 202.309 260.157 202.335 260.218C202.36 260.279 202.373 260.344 202.373 260.41C202.373 260.476 202.36 260.541 202.335 260.602C202.309 260.662 202.272 260.718 202.225 260.764C202.176 260.805 202.118 260.835 202.056 260.852C201.994 260.869 201.929 260.873 201.865 260.864Z" fill="#8593B6"/>
<path d="M161.185 252.304C161.054 252.287 160.935 252.218 160.854 252.114C160.774 252.009 160.738 251.877 160.755 251.746C161.125 249.152 166.865 197.476 167.125 193.515C167.134 193.383 167.196 193.26 167.296 193.173C167.397 193.086 167.528 193.042 167.66 193.052C167.793 193.061 167.916 193.122 168.003 193.222C168.091 193.322 168.134 193.453 168.125 193.585C167.865 197.576 162.125 249.282 161.745 251.885C161.725 252.014 161.656 252.13 161.551 252.209C161.446 252.287 161.315 252.321 161.185 252.304Z" fill="#8593B6"/>
<path d="M202.385 266.36C202.322 266.375 202.257 266.375 202.195 266.36C200.925 265.852 195.305 263.956 188.195 261.562C173.835 256.734 154.195 250.119 150.425 248.174C150.349 248.151 150.28 248.109 150.224 248.053C150.168 247.997 150.126 247.928 150.103 247.853C150.079 247.777 150.074 247.697 150.089 247.619C150.103 247.541 150.136 247.468 150.185 247.406C150.215 247.347 150.257 247.295 150.308 247.253C150.359 247.211 150.418 247.179 150.481 247.159C150.544 247.14 150.611 247.133 150.677 247.14C150.743 247.146 150.806 247.165 150.865 247.196C154.535 249.092 174.965 255.965 188.485 260.514C195.615 262.919 201.245 264.814 202.545 265.333C202.666 265.384 202.763 265.48 202.814 265.602C202.864 265.723 202.865 265.86 202.815 265.981C202.792 266.082 202.738 266.172 202.661 266.24C202.584 266.308 202.487 266.35 202.385 266.36Z" fill="#8593B6"/>
<path d="M195.475 286.911C182.845 286.911 158.345 284.637 139.735 278.072C139.621 278.021 139.53 277.929 139.481 277.814C139.432 277.699 139.428 277.57 139.469 277.452C139.511 277.335 139.595 277.237 139.705 277.178C139.815 277.119 139.944 277.104 140.065 277.135C163.575 285.435 196.465 286.851 202.585 285.475C202.651 285.46 202.719 285.459 202.785 285.47C202.851 285.482 202.914 285.507 202.971 285.543C203.027 285.579 203.076 285.626 203.115 285.681C203.153 285.736 203.181 285.798 203.195 285.864C203.209 285.929 203.211 285.997 203.199 286.063C203.187 286.129 203.163 286.192 203.126 286.248C203.09 286.305 203.043 286.354 202.988 286.392C202.933 286.431 202.871 286.458 202.805 286.472C200.38 286.843 197.927 286.99 195.475 286.911Z" fill="#8593B6"/>
<path d="M50.8448 162.999C54.7648 166.44 59.7348 168.645 63.1748 172.626C64.5348 174.192 65.7548 175.858 67.0048 177.494C67.9248 178.691 70.3648 180.676 70.7648 182.183C70.9348 182.841 70.9048 181.943 70.7648 181.285V181.195C70.4248 178.202 70.1748 175.1 70.0648 172.047C69.9548 168.994 70.1548 165.922 69.9648 162.879C69.6948 158.579 68.3448 154.419 64.8248 151.726C63.1048 150.409 60.8948 149.611 59.3048 148.144C57.7148 146.678 58.4048 145.152 59.3048 143.625C60.2596 142.24 60.9855 140.711 61.4548 139.096C61.6525 137.183 61.1596 135.262 60.0648 133.679C58.0148 130.247 53.4648 126.426 49.1648 126.935C45.5748 127.364 45.1648 131.494 45.2248 134.377C45.2848 137.26 45.5448 139.964 45.5748 142.757C45.6048 145.551 45.1148 148.454 45.0748 151.317C45.0048 156.135 47.2548 159.846 50.8448 162.999Z" fill="black"/>
<path d="M87.295 207.671C88.3631 205.094 89.6652 202.62 91.185 200.279C93.295 197.037 95.635 193.874 97.055 190.243C98.475 186.612 98.295 182.572 98.435 178.671C98.545 175.798 99.435 172.935 99.165 170.062C99.055 168.685 98.265 166.45 96.475 166.68C95.075 166.859 94.255 168.575 93.715 169.673C92.8384 171.62 92.0804 173.619 91.445 175.658C91.175 176.446 90.915 177.254 90.575 178.012C90.375 178.451 89.735 179.529 89.145 179.379C88.145 179.13 89.045 174.99 89.195 174.261C89.955 170.57 91.105 167.149 91.265 163.358C91.495 157.871 91.065 151.327 85.675 148.324C84.265 147.536 82.485 147.067 81.145 148.244C79.805 149.421 79.455 151.406 79.255 153.062C78.655 158.14 79.855 162.939 81.485 167.717C82.825 171.658 84.485 175.698 84.545 179.948C84.665 183.998 82.545 187.599 81.545 191.43C80.5253 195.117 80.0967 198.942 80.275 202.763C80.275 205.237 80.355 207.691 80.535 210.165C80.705 212.43 80.905 214.704 81.185 216.969C81.185 217.428 81.295 217.907 81.355 218.376C80.475 216.281 80.175 213.866 79.445 211.761C78.155 208 76.665 204.329 75.445 200.558C74.5026 197.415 73.391 194.325 72.115 191.301C70.845 188.487 69.325 185.514 66.965 183.449C65.5881 182.176 63.7825 181.464 61.905 181.454C60.718 181.55 59.5483 181.798 58.425 182.192C57.797 182.41 57.1238 182.463 56.4692 182.348C55.8146 182.233 55.2005 181.953 54.685 181.534C50.815 178.541 49.685 173.264 46.785 169.513C44.655 166.72 39.595 161.951 35.875 165.004C33.875 166.62 33.365 169.742 33.465 172.137C33.7367 175.105 34.7699 177.953 36.465 180.407C38.135 183.08 40.295 185.475 41.825 188.228C42.6409 189.756 42.9556 191.5 42.725 193.216C42.4653 194.905 42.571 196.629 43.035 198.274C44.805 203.262 50.325 202.574 54.625 202.703C57.7113 202.764 60.7727 203.268 63.715 204.2C65.2623 204.676 66.6722 205.517 67.826 206.651C68.9797 207.784 69.8436 209.178 70.345 210.714C71.195 213.068 71.655 215.702 73.265 217.697C74.0306 218.623 75.0081 219.352 76.115 219.822C77.795 220.56 82.905 220.88 82.945 220.411C83.2239 218.809 83.6696 217.241 84.275 215.732C85.185 213.058 86.185 210.345 87.295 207.671Z" fill="black"/>
<path d="M111.025 206.724C110.585 203.871 110.665 200.738 109.315 198.094C109.261 198.008 109.176 197.946 109.078 197.92C108.979 197.894 108.874 197.906 108.785 197.955C107.785 198.493 107.785 200.06 107.695 201.027C107.555 202.614 107.695 204.21 107.465 205.796C107.126 208.631 106.455 211.417 105.465 214.096C104.964 215.463 104.135 216.686 103.051 217.66C101.966 218.634 100.66 219.328 99.2448 219.683C97.2923 220.129 95.4428 220.941 93.7948 222.077C92.3933 223.259 91.2989 224.761 90.6048 226.456C88.6048 230.945 87.6048 235.973 86.7048 240.772C86.0748 244.014 85.5648 247.256 84.7748 250.459C83.9122 253.639 83.2179 256.862 82.6948 260.115C82.6148 260.275 82.5348 260.445 82.4648 260.604C82.2648 261.093 83.0248 261.362 83.2948 260.953C86.3948 256.185 90.1848 251.905 95.2948 249.271C97.6248 248.084 100.725 247.845 102.675 245.979C104.155 244.553 104.355 242.388 104.135 240.463C103.845 237.929 102.625 235.844 101.355 233.679C100.665 232.492 99.8348 231.225 100.115 229.778C100.308 229.125 100.632 228.518 101.066 227.993C101.501 227.469 102.038 227.038 102.645 226.726C104.785 225.399 107.305 224.8 109.055 222.875C110.665 221.118 111.625 218.866 111.775 216.49C111.888 213.217 111.637 209.941 111.025 206.724Z" fill="black"/>
<path d="M68.6651 223.204C65.9171 219.686 62.614 216.637 58.8851 214.176C56.8851 212.859 52.2151 210.255 51.2651 214.176C50.7151 216.45 52.9451 218.685 54.4151 220.161C56.6251 222.306 59.1751 224.152 61.0351 226.626C58.7351 227.364 56.3251 227.504 54.3151 229.09C51.9451 230.975 50.8751 234.617 53.2351 236.921C54.4514 237.974 55.8332 238.82 57.3251 239.425C59.1851 240.323 61.0751 241.141 62.9751 241.929C67.0851 243.645 71.2451 245.381 74.7451 248.184C78.2451 250.987 81.6751 255.866 81.9551 260.534C81.9551 260.973 81.8151 260.534 82.0851 260.365C82.2251 260.495 82.7151 260.265 82.7151 260.006C82.7281 253.176 81.3148 246.418 78.5651 240.163C75.9498 234.139 72.6266 228.446 68.6651 223.204Z" fill="black"/>
<path d="M59.1849 158.799C60.7049 161.931 62.2849 164.994 63.9649 168.047C65.6431 170.938 67.1264 173.937 68.4049 177.025C69.8949 180.886 71.4049 184.687 73.0249 188.517C74.6814 192.489 76.1071 196.553 77.2949 200.688C79.6432 208.788 81.2794 217.076 82.1849 225.459C82.6214 229.707 82.7884 233.979 82.6849 238.248C82.5949 241.59 82.2149 244.892 81.9049 248.224C81.502 251.681 81.4083 255.166 81.6249 258.639C81.8749 261.542 82.3349 264.984 84.6249 267.049C84.7154 267.132 84.8327 267.181 84.9558 267.186C85.079 267.192 85.2 267.153 85.2973 267.078C85.3946 267.002 85.4618 266.895 85.487 266.774C85.5122 266.654 85.4938 266.528 85.4349 266.42C82.7549 260.944 82.9049 254.978 83.4349 249.032C83.7149 245.75 84.1049 242.488 84.2149 239.196C84.3451 235.004 84.2048 230.809 83.7949 226.636C82.9421 218.431 81.4 210.312 79.1849 202.364C78.0829 198.301 76.7473 194.304 75.1849 190.393C73.6249 186.452 71.8249 182.632 70.3149 178.681C67.5849 171.528 63.4249 165.183 59.7349 158.529C59.5449 158.18 59.0449 158.529 59.2049 158.829L59.1849 158.799Z" fill="#43588E"/>
<path d="M82.2551 217.268C82.6851 212.061 83.1451 207.043 84.9051 202.075C85.7251 199.76 86.7251 197.506 87.5151 195.181C88.1651 193.266 89.1451 190.622 88.6451 188.587C88.6342 188.536 88.6059 188.49 88.5649 188.456C88.5239 188.423 88.4728 188.405 88.4201 188.405C88.3674 188.405 88.3163 188.423 88.2753 188.456C88.2344 188.49 88.2061 188.536 88.1951 188.587C87.8551 189.754 87.8951 191.031 87.6551 192.228C87.4072 193.39 87.1001 194.539 86.7351 195.67C85.9651 198.074 84.9551 200.379 84.0851 202.743C82.3339 207.376 81.5875 212.327 81.8951 217.268C81.8951 217.316 81.9141 217.362 81.9478 217.395C81.9816 217.429 82.0274 217.448 82.0751 217.448C82.1229 217.448 82.1686 217.429 82.2024 217.395C82.2362 217.362 82.2551 217.316 82.2551 217.268Z" fill="#43588E"/>
<path d="M52.0051 187.34C54.0851 192.328 60.3051 192.628 64.8451 193.745C66.3938 194.169 67.8413 194.898 69.1021 195.891C70.363 196.883 71.4113 198.117 72.1851 199.521C73.9963 202.693 75.4038 206.077 76.3751 209.597C76.3751 209.597 76.4451 209.597 76.4351 209.597C75.1651 203.611 73.3551 196.398 67.1651 193.635C62.2151 191.41 55.6851 192.528 52.5151 187.191C52.3551 186.921 51.8751 187.101 51.9951 187.4L52.0051 187.34Z" fill="#43588E"/>
<path d="M78.9751 216.48C79.2251 216.809 79.4551 217.159 79.7051 217.478C79.8257 217.641 79.9632 217.792 80.1151 217.927C80.2709 218.085 80.475 218.187 80.6951 218.216C80.717 218.215 80.7383 218.209 80.7571 218.197C80.7758 218.186 80.7914 218.17 80.8024 218.151C80.8133 218.132 80.8193 218.111 80.8198 218.089C80.8203 218.067 80.8153 218.046 80.8051 218.026C80.6791 217.879 80.5346 217.748 80.3751 217.637L79.9251 217.238C79.6351 216.969 79.3751 216.67 79.0851 216.39C79.0351 216.39 78.9251 216.39 78.9751 216.48Z" fill="#43588E"/>
<path d="M66.0251 232.312C69.6427 235.256 72.8361 238.684 75.5151 242.498C76.7676 244.322 77.9193 246.214 78.9651 248.164C80.0216 250.301 80.9564 252.496 81.7651 254.738C81.8351 254.908 82.1351 254.918 82.1151 254.738C81.6151 250.04 78.6351 246.009 76.2551 242.109C74.9878 240.158 73.4978 238.36 71.8151 236.752C70.1433 234.985 68.3123 233.375 66.3451 231.943C66.1051 231.763 65.7951 232.163 66.0251 232.352V232.312Z" fill="#43588E"/>
<path d="M94.4749 226.786C92.7549 227.783 92.7049 230.477 92.6649 232.203C92.6049 235.535 93.4249 238.657 91.9649 241.829C90.6449 244.693 88.5349 247.077 86.8749 249.74C85.3149 252.234 83.7849 255.417 83.8149 258.41C83.8149 258.579 84.0849 258.679 84.1649 258.499C84.69 257.085 85.1242 255.639 85.4649 254.17C85.9641 252.591 86.6774 251.087 87.5849 249.701C89.1849 247.237 91.1449 244.982 92.4449 242.328C93.8049 239.525 93.6049 236.752 93.5149 233.719C93.5149 231.784 93.2649 228.681 94.8249 227.244C94.879 227.196 94.9127 227.129 94.9195 227.057C94.9263 226.984 94.9057 226.912 94.8616 226.854C94.8175 226.797 94.7533 226.757 94.6817 226.745C94.6101 226.732 94.5362 226.747 94.4749 226.786Z" fill="#43588E"/>
<path d="M82.975 258.719C76.035 258.619 62.835 258.549 62.835 258.549L66.105 282.751C66.4519 285.391 67.7488 287.815 69.7541 289.571C71.7594 291.327 74.3364 292.297 77.005 292.298H88.935C91.5992 292.3 94.1737 291.338 96.1802 289.589C98.1867 287.841 99.4889 285.425 99.845 282.791L103.105 258.589C103.105 258.589 89.905 258.619 82.975 258.719Z" fill="white"/>
<path d="M418.075 214.236L378.525 292.398L263.215 293.226L298.795 213.138L418.075 214.236Z" fill="#F6F7FA"/>
<path d="M186.685 292.737V286.482H261.325L295.675 211.353H415.075L418.075 214.236H301.455L265.765 292.667C265.765 292.667 186.685 292.528 186.685 292.737Z" fill="#D9DEE8"/>
<path d="M358.185 257.382C356.885 261.273 349.815 264.285 342.395 264.106C334.975 263.926 330.015 260.604 331.315 256.704C332.615 252.803 339.695 249.8 347.115 249.98C354.535 250.159 359.495 253.471 358.185 257.382Z" fill="#D9DEE8"/>
<path d="M265.765 293.166C265.696 293.18 265.624 293.18 265.555 293.166C265.434 293.112 265.341 293.012 265.294 292.888C265.247 292.765 265.251 292.628 265.305 292.508L301.185 213.737H418.075C418.208 213.737 418.335 213.789 418.429 213.883C418.522 213.976 418.575 214.103 418.575 214.236C418.575 214.368 418.522 214.495 418.429 214.588C418.335 214.682 418.208 214.734 418.075 214.734H301.775L266.185 292.877C266.149 292.96 266.091 293.031 266.017 293.082C265.942 293.133 265.855 293.162 265.765 293.166Z" fill="white"/>
<path d="M181.485 298.653H44.3149V328.99H181.485V298.653Z" fill="#596B9B"/>
<path d="M427.505 298.653H180.705V328.99H427.505V298.653Z" fill="#7A89AF"/>
<g style="mix-blend-mode:multiply">
<path d="M181.485 298.653H180.705H44.3149V304.229H180.705H181.485H427.505V298.653H181.485Z" fill="#BDC4D7"/>
</g>
<path d="M187.485 292.667H37.6948V300.099H187.485V292.667Z" fill="#6F7FA9"/>
<path d="M433.505 292.667H186.705V300.099H433.505V292.667Z" fill="#9CA6C3"/>
<path d="M146.855 98.5435H98.4349C95.436 98.5435 93.0049 100.969 93.0049 103.96V128.073C93.0049 131.064 95.436 133.49 98.4349 133.49H146.855C149.854 133.49 152.285 131.064 152.285 128.073V103.96C152.285 100.969 149.854 98.5435 146.855 98.5435Z" fill="white"/>
<path d="M166.085 116.011L147.895 108.36V123.663L166.085 116.011Z" fill="white"/>
<path d="M111.155 119.353C113.005 119.353 114.505 117.857 114.505 116.011C114.505 114.166 113.005 112.669 111.155 112.669C109.305 112.669 107.805 114.166 107.805 116.011C107.805 117.857 109.305 119.353 111.155 119.353Z" fill="black"/>
<path d="M122.645 119.353C124.495 119.353 125.995 117.857 125.995 116.011C125.995 114.166 124.495 112.669 122.645 112.669C120.795 112.669 119.295 114.166 119.295 116.011C119.295 117.857 120.795 119.353 122.645 119.353Z" fill="black"/>
<path d="M134.135 119.353C135.985 119.353 137.485 117.857 137.485 116.011C137.485 114.166 135.985 112.669 134.135 112.669C132.285 112.669 130.785 114.166 130.785 116.011C130.785 117.857 132.285 119.353 134.135 119.353Z" fill="black"/>
<path d="M393.385 24.8516L393.386 24.8516C395.029 24.8491 396.656 25.1698 398.175 25.7954C399.694 26.4209 401.074 27.3391 402.237 28.4973C403.4 29.6554 404.322 31.0308 404.952 32.5448C405.581 34.0587 405.905 35.6816 405.905 37.3204V90.1935C405.905 93.5 404.588 96.6714 402.244 99.0099C399.9 101.348 396.72 102.662 393.405 102.662H311.405H311.13L310.982 102.895C305.42 111.669 297.507 118.705 288.152 123.213C291.735 114.623 292.366 107.794 292.094 103.133L292.066 102.662H291.595H281.595C278.279 102.662 275.1 101.348 272.755 99.0099C270.411 96.6714 269.095 93.5 269.095 90.1935V37.3204C269.095 34.0139 270.411 30.8425 272.755 28.504C275.1 26.1655 278.279 24.8516 281.595 24.8516L393.385 24.8516Z" fill="black" stroke="white"/>
<path d="M345.695 49.561H290.245C289.515 49.561 288.814 49.2723 288.297 48.7581C287.779 48.2439 287.488 47.5461 287.485 46.8176C287.485 46.0874 287.776 45.387 288.293 44.8707C288.811 44.3543 289.513 44.0642 290.245 44.0642H345.695C346.427 44.0642 347.129 44.3543 347.646 44.8707C348.164 45.387 348.455 46.0874 348.455 46.8176C348.452 47.5461 348.16 48.2439 347.643 48.7581C347.126 49.2723 346.425 49.561 345.695 49.561Z" fill="white"/>
<path d="M385.455 65.5926H289.185C288.737 65.5926 288.307 65.415 287.99 65.0988C287.673 64.7826 287.495 64.3538 287.495 63.9067C287.495 63.4595 287.673 63.0307 287.99 62.7145C288.307 62.3984 288.737 62.2207 289.185 62.2207H385.465C385.69 62.2167 385.913 62.2574 386.121 62.3404C386.33 62.4233 386.519 62.5469 386.68 62.7038C386.84 62.8608 386.967 63.048 387.054 63.2545C387.14 63.461 387.185 63.6827 387.185 63.9067C387.185 64.1315 387.14 64.354 387.053 64.5612C386.965 64.7684 386.837 64.9561 386.676 65.1132C386.515 65.2702 386.324 65.3936 386.114 65.4759C385.904 65.5583 385.68 65.5979 385.455 65.5926Z" fill="#D2E6FF"/>
<path d="M385.455 74.95H289.185C288.737 74.95 288.307 74.7724 287.99 74.4562C287.673 74.1401 287.495 73.7112 287.495 73.2641C287.495 72.817 287.673 72.3881 287.99 72.0719C288.307 71.7558 288.737 71.5781 289.185 71.5781H385.465C385.69 71.5742 385.913 71.6148 386.121 71.6978C386.33 71.7807 386.519 71.9043 386.68 72.0612C386.84 72.2182 386.967 72.4054 387.054 72.6119C387.14 72.8185 387.185 73.0402 387.185 73.2641C387.185 73.4889 387.14 73.7114 387.053 73.9186C386.965 74.1258 386.837 74.3135 386.676 74.4706C386.515 74.6277 386.324 74.751 386.114 74.8334C385.904 74.9157 385.68 74.9554 385.455 74.95Z" fill="#D2E6FF"/>
<path d="M364.455 84.9261H289.185C288.737 84.9261 288.307 84.7485 287.99 84.4323C287.673 84.1161 287.495 83.6873 287.495 83.2402C287.495 82.793 287.673 82.3642 287.99 82.048C288.307 81.7318 288.737 81.5542 289.185 81.5542H364.465C364.69 81.5502 364.913 81.5909 365.121 81.6739C365.33 81.7568 365.519 81.8804 365.68 82.0373C365.84 82.1943 365.967 82.3815 366.054 82.588C366.14 82.7945 366.185 83.0162 366.185 83.2402C366.185 83.465 366.14 83.6875 366.053 83.8947C365.965 84.1019 365.837 84.2896 365.676 84.4467C365.515 84.6037 365.324 84.7271 365.114 84.8094C364.904 84.8918 364.68 84.9314 364.455 84.9261Z" fill="#D2E6FF"/>
<path d="M384.695 49.561H358.245C357.515 49.561 356.814 49.2723 356.297 48.7581C355.779 48.2439 355.488 47.5461 355.485 46.8176C355.485 46.0874 355.776 45.387 356.293 44.8707C356.811 44.3543 357.513 44.0642 358.245 44.0642H384.695C385.058 44.0629 385.417 44.1332 385.753 44.2711C386.088 44.409 386.393 44.6118 386.649 44.8677C386.906 45.1237 387.109 45.4277 387.247 45.7624C387.386 46.097 387.456 46.4557 387.455 46.8176C387.455 47.1787 387.383 47.5363 387.245 47.8698C387.106 48.2033 386.902 48.5062 386.646 48.761C386.389 49.0159 386.085 49.2178 385.75 49.3551C385.416 49.4924 385.057 49.5623 384.695 49.561Z" fill="white"/>
<path d="M318.025 146.778H287.995C286.891 146.778 285.995 147.671 285.995 148.773V169.244C285.995 170.346 286.891 171.239 287.995 171.239H318.025C319.13 171.239 320.025 170.346 320.025 169.244V148.773C320.025 147.671 319.13 146.778 318.025 146.778Z" fill="white"/>
<path d="M303.185 162.669C303.008 162.668 302.838 162.605 302.705 162.49L286.355 149.022C286.279 148.957 286.217 148.877 286.173 148.788C286.128 148.698 286.102 148.601 286.095 148.501C286.088 148.402 286.1 148.302 286.132 148.207C286.164 148.113 286.214 148.025 286.28 147.95C286.345 147.874 286.425 147.813 286.515 147.768C286.604 147.724 286.702 147.697 286.802 147.69C286.902 147.683 287.002 147.696 287.097 147.728C287.192 147.759 287.279 147.809 287.355 147.875L303.185 160.934L318.635 147.526C318.785 147.393 318.981 147.326 319.181 147.338C319.38 147.35 319.567 147.441 319.7 147.591C319.832 147.74 319.9 147.936 319.888 148.135C319.876 148.334 319.785 148.521 319.635 148.653L303.705 162.48C303.561 162.605 303.376 162.673 303.185 162.669Z" fill="#6F7FA9"/>
<path d="M286.875 170.68C286.728 170.68 286.584 170.637 286.462 170.556C286.339 170.475 286.243 170.36 286.185 170.225C286.128 170.09 286.111 169.941 286.138 169.797C286.165 169.652 286.233 169.519 286.335 169.413L297.765 157.442C297.834 157.371 297.916 157.315 298.007 157.277C298.098 157.239 298.196 157.219 298.295 157.219C298.394 157.219 298.492 157.239 298.583 157.277C298.674 157.315 298.756 157.371 298.825 157.442C298.965 157.582 299.044 157.772 299.044 157.971C299.044 158.169 298.965 158.359 298.825 158.499L287.395 170.471C287.256 170.606 287.069 170.681 286.875 170.68Z" fill="#6F7FA9"/>
<path d="M319.185 170.241C319.086 170.243 318.988 170.225 318.897 170.187C318.806 170.149 318.723 170.093 318.655 170.022L307.235 158.619C307.103 158.477 307.03 158.29 307.034 158.096C307.037 157.902 307.116 157.717 307.253 157.58C307.391 157.443 307.576 157.364 307.77 157.361C307.965 157.358 308.153 157.429 308.295 157.562L319.685 168.954C319.825 169.095 319.904 169.285 319.904 169.483C319.904 169.681 319.825 169.871 319.685 170.012C319.554 170.15 319.375 170.232 319.185 170.241Z" fill="#6F7FA9"/>
<path d="M321.595 156.025C327.134 156.025 331.625 151.546 331.625 146.019C331.625 140.493 327.134 136.013 321.595 136.013C316.056 136.013 311.565 140.493 311.565 146.019C311.565 151.546 316.056 156.025 321.595 156.025Z" fill="black"/>
<path d="M319.167 146.018L319.143 145.742C319.447 145.878 319.711 146.054 319.935 146.27C320.159 146.486 320.331 146.722 320.451 146.978C320.571 147.234 320.631 147.498 320.631 147.77C320.631 148.226 320.503 148.646 320.247 149.03C319.999 149.406 319.663 149.71 319.239 149.942C318.815 150.166 318.343 150.278 317.823 150.278C317.303 150.278 316.831 150.166 316.407 149.942C315.983 149.71 315.643 149.406 315.387 149.03C315.139 148.646 315.015 148.226 315.015 147.77C315.015 147.402 315.091 147.086 315.243 146.822C315.403 146.55 315.599 146.322 315.831 146.138C316.071 145.954 316.307 145.802 316.539 145.682L316.443 146.018C316.243 145.938 316.047 145.826 315.855 145.682C315.671 145.53 315.519 145.338 315.399 145.106C315.279 144.874 315.219 144.602 315.219 144.29C315.219 143.842 315.335 143.438 315.567 143.078C315.799 142.71 316.111 142.418 316.503 142.202C316.903 141.986 317.343 141.878 317.823 141.878C318.311 141.878 318.747 141.986 319.131 142.202C319.523 142.418 319.835 142.71 320.067 143.078C320.299 143.438 320.415 143.842 320.415 144.29C320.415 144.634 320.347 144.922 320.211 145.154C320.075 145.386 319.911 145.57 319.719 145.706C319.527 145.842 319.343 145.946 319.167 146.018ZM316.659 144.314C316.659 144.53 316.707 144.722 316.803 144.89C316.907 145.058 317.047 145.194 317.223 145.298C317.399 145.394 317.599 145.442 317.823 145.442C318.047 145.442 318.243 145.394 318.411 145.298C318.587 145.194 318.723 145.058 318.819 144.89C318.923 144.722 318.975 144.53 318.975 144.314C318.975 143.994 318.863 143.73 318.639 143.522C318.423 143.306 318.151 143.198 317.823 143.198C317.487 143.198 317.207 143.306 316.983 143.522C316.767 143.73 316.659 143.994 316.659 144.314ZM317.823 148.958C318.207 148.958 318.531 148.842 318.795 148.61C319.059 148.37 319.191 148.082 319.191 147.746C319.191 147.514 319.131 147.306 319.011 147.122C318.891 146.938 318.727 146.794 318.519 146.69C318.311 146.578 318.079 146.522 317.823 146.522C317.567 146.522 317.335 146.578 317.127 146.69C316.919 146.794 316.755 146.938 316.635 147.122C316.515 147.306 316.455 147.514 316.455 147.746C316.455 148.082 316.587 148.37 316.851 148.61C317.115 148.842 317.439 148.958 317.823 148.958ZM324.001 150.398C323.705 150.398 323.389 150.354 323.053 150.266C322.717 150.17 322.441 150.034 322.225 149.858C322.121 149.77 322.037 149.658 321.973 149.522C321.917 149.378 321.889 149.242 321.889 149.114C321.889 148.978 321.945 148.85 322.057 148.73C322.177 148.61 322.345 148.55 322.561 148.55C322.705 148.55 322.885 148.626 323.101 148.778C323.229 148.858 323.369 148.93 323.521 148.994C323.673 149.058 323.829 149.09 323.989 149.09C324.373 149.09 324.705 149.022 324.985 148.886C325.265 148.742 325.481 148.546 325.633 148.298C325.785 148.05 325.861 147.758 325.861 147.422C325.861 147.118 325.789 146.858 325.645 146.642C325.509 146.426 325.325 146.258 325.093 146.138C324.869 146.018 324.625 145.958 324.361 145.958C324.113 145.958 323.897 145.998 323.713 146.078C323.529 146.158 323.361 146.242 323.209 146.33C323.057 146.41 322.905 146.45 322.753 146.45C322.489 146.45 322.293 146.394 322.165 146.282C322.037 146.162 321.957 146.022 321.925 145.862C321.893 145.702 321.885 145.558 321.901 145.43L322.273 142.514C322.305 142.346 322.385 142.21 322.513 142.106C322.649 141.994 322.809 141.938 322.993 141.938H326.461C326.653 141.938 326.813 142.002 326.941 142.13C327.069 142.258 327.133 142.418 327.133 142.61C327.133 142.794 327.069 142.95 326.941 143.078C326.813 143.198 326.653 143.258 326.461 143.258H323.365L323.497 143.15L323.173 145.586L323.017 145.13C323.065 145.05 323.169 144.974 323.329 144.902C323.489 144.83 323.673 144.77 323.881 144.722C324.089 144.666 324.293 144.638 324.493 144.638C325.029 144.638 325.509 144.762 325.933 145.01C326.357 145.25 326.689 145.582 326.929 146.006C327.177 146.422 327.301 146.894 327.301 147.422C327.301 148.022 327.165 148.546 326.893 148.994C326.621 149.442 326.237 149.79 325.741 150.038C325.253 150.278 324.673 150.398 324.001 150.398Z" fill="white"/>
<path d="M363.755 125.709H422.375C424.309 125.709 425.875 127.273 425.875 129.2V138.348C425.875 140.274 424.309 141.838 422.375 141.838H363.755C361.821 141.838 360.255 140.274 360.255 138.348V129.2C360.255 127.273 361.821 125.709 363.755 125.709Z" fill="black" stroke="white"/>
<path d="M367.985 138.268C367.866 138.271 367.748 138.247 367.639 138.199C367.53 138.15 367.433 138.079 367.355 137.989C367.197 137.788 367.122 137.535 367.145 137.28L367.395 135.066C367.395 135.006 367.395 134.976 367.395 134.956C367.395 134.936 367.315 134.956 367.255 134.956L365.425 136.273C365.329 136.353 365.217 136.411 365.095 136.442C364.974 136.473 364.848 136.476 364.725 136.452C364.6 136.427 364.483 136.375 364.381 136.299C364.279 136.223 364.195 136.126 364.135 136.013C364.054 135.903 364.002 135.773 363.984 135.637C363.967 135.501 363.984 135.363 364.035 135.235C364.082 135.123 364.153 135.022 364.243 134.939C364.333 134.857 364.439 134.794 364.555 134.756L366.605 133.829C366.665 133.829 366.695 133.799 366.695 133.739C366.695 133.739 366.695 133.679 366.605 133.659L364.555 132.731C364.436 132.686 364.329 132.616 364.241 132.524C364.152 132.433 364.086 132.323 364.045 132.203C364.01 132.081 364 131.954 364.016 131.829C364.031 131.704 364.072 131.583 364.135 131.474C364.195 131.362 364.279 131.265 364.381 131.189C364.483 131.113 364.6 131.06 364.725 131.035C364.846 131.011 364.97 131.011 365.091 131.037C365.211 131.063 365.325 131.113 365.425 131.185L367.255 132.532C367.315 132.532 367.355 132.582 367.395 132.532C367.435 132.482 367.445 132.532 367.395 132.422L367.145 130.207C367.13 130.081 367.142 129.952 367.18 129.83C367.218 129.708 367.281 129.595 367.365 129.499C367.452 129.407 367.558 129.334 367.675 129.286C367.792 129.238 367.918 129.215 368.045 129.22C368.17 129.218 368.294 129.243 368.408 129.295C368.522 129.347 368.623 129.423 368.704 129.519C368.784 129.614 368.842 129.727 368.874 129.848C368.905 129.968 368.909 130.095 368.885 130.217L368.635 132.432C368.635 132.492 368.635 132.522 368.635 132.542C368.635 132.562 368.715 132.542 368.775 132.542L370.605 131.225C370.703 131.144 370.817 131.086 370.94 131.055C371.063 131.024 371.191 131.021 371.315 131.045C371.44 131.067 371.558 131.118 371.659 131.194C371.76 131.271 371.841 131.37 371.895 131.484C371.974 131.596 372.025 131.725 372.042 131.861C372.059 131.997 372.043 132.134 371.995 132.262C371.946 132.374 371.875 132.474 371.786 132.556C371.696 132.639 371.59 132.702 371.475 132.741L369.415 133.669C369.365 133.669 369.335 133.719 369.335 133.749C369.335 133.779 369.335 133.819 369.415 133.839L371.475 134.766C371.595 134.813 371.703 134.884 371.792 134.975C371.882 135.066 371.951 135.175 371.995 135.295C372.036 135.416 372.048 135.545 372.031 135.671C372.013 135.797 371.967 135.918 371.895 136.023C371.841 136.138 371.76 136.237 371.659 136.314C371.558 136.39 371.44 136.441 371.315 136.462C371.193 136.487 371.067 136.487 370.945 136.461C370.822 136.435 370.707 136.385 370.605 136.313L368.775 134.966C368.715 134.966 368.665 134.916 368.635 134.966C368.605 135.016 368.585 135.016 368.635 135.076L368.885 137.29C368.908 137.417 368.901 137.547 368.865 137.67C368.828 137.793 368.763 137.905 368.675 137.999C368.584 138.088 368.476 138.158 368.358 138.204C368.239 138.25 368.112 138.272 367.985 138.268Z" fill="white"/>
<path d="M380.105 138.268C379.986 138.271 379.868 138.247 379.759 138.199C379.65 138.15 379.553 138.079 379.475 137.989C379.317 137.788 379.242 137.535 379.265 137.28L379.515 135.066C379.515 135.006 379.515 134.976 379.515 134.956C379.492 134.943 379.466 134.936 379.44 134.936C379.414 134.936 379.388 134.943 379.365 134.956L377.545 136.273C377.447 136.353 377.333 136.411 377.21 136.442C377.087 136.473 376.959 136.476 376.835 136.452C376.711 136.426 376.594 136.373 376.492 136.297C376.39 136.222 376.306 136.125 376.245 136.013C376.166 135.902 376.116 135.772 376.098 135.637C376.081 135.501 376.097 135.363 376.145 135.235C376.194 135.124 376.265 135.024 376.355 134.941C376.444 134.859 376.55 134.796 376.665 134.756L378.725 133.829C378.775 133.829 378.805 133.779 378.805 133.739C378.805 133.699 378.805 133.679 378.725 133.659L376.665 132.731C376.547 132.688 376.44 132.617 376.353 132.525C376.266 132.434 376.202 132.323 376.165 132.203C376.126 132.082 376.113 131.955 376.127 131.83C376.141 131.704 376.181 131.583 376.245 131.474C376.306 131.363 376.39 131.266 376.492 131.19C376.594 131.115 376.711 131.062 376.835 131.035C376.957 131.011 377.083 131.012 377.205 131.037C377.328 131.063 377.443 131.113 377.545 131.185L379.365 132.532C379.388 132.545 379.414 132.552 379.44 132.552C379.466 132.552 379.492 132.545 379.515 132.532C379.515 132.532 379.515 132.532 379.515 132.422L379.265 130.207C379.252 130.08 379.266 129.951 379.306 129.829C379.345 129.707 379.41 129.595 379.495 129.499C379.581 129.411 379.683 129.341 379.797 129.293C379.91 129.245 380.032 129.221 380.155 129.221C380.278 129.221 380.4 129.245 380.513 129.293C380.627 129.341 380.729 129.411 380.815 129.499C380.898 129.595 380.959 129.709 380.992 129.831C381.025 129.954 381.029 130.083 381.005 130.207L380.755 132.422C380.755 132.482 380.755 132.512 380.755 132.532C380.755 132.552 380.835 132.532 380.895 132.532L382.725 131.215C382.824 131.133 382.94 131.075 383.065 131.044C383.189 131.013 383.319 131.01 383.445 131.035C383.569 131.059 383.686 131.111 383.787 131.187C383.887 131.263 383.969 131.362 384.025 131.474C384.103 131.587 384.152 131.716 384.168 131.852C384.184 131.988 384.166 132.125 384.115 132.253C384.068 132.365 383.997 132.466 383.907 132.548C383.818 132.631 383.711 132.693 383.595 132.731L381.545 133.659C381.485 133.659 381.455 133.709 381.455 133.739C381.455 133.769 381.455 133.809 381.545 133.829L383.595 134.756C383.716 134.8 383.826 134.87 383.916 134.961C384.006 135.053 384.074 135.164 384.115 135.285C384.16 135.405 384.175 135.534 384.159 135.66C384.143 135.787 384.097 135.908 384.025 136.013C383.969 136.126 383.887 136.225 383.787 136.301C383.686 136.377 383.569 136.429 383.445 136.452C383.321 136.478 383.193 136.478 383.069 136.452C382.946 136.427 382.828 136.376 382.725 136.303L380.895 134.956C380.835 134.956 380.795 134.906 380.755 134.956C380.715 135.006 380.705 135.006 380.755 135.066L381.005 137.28C381.028 137.407 381.021 137.537 380.985 137.66C380.948 137.783 380.883 137.895 380.795 137.989C380.706 138.081 380.599 138.154 380.48 138.202C380.361 138.25 380.233 138.273 380.105 138.268Z" fill="white"/>
<path d="M392.235 138.268C392.116 138.271 391.998 138.247 391.889 138.199C391.78 138.15 391.683 138.079 391.605 137.989C391.443 137.79 391.365 137.536 391.385 137.28L391.645 135.066C391.645 135.006 391.645 134.976 391.645 134.956C391.645 134.936 391.565 134.956 391.505 134.956L389.675 136.273C389.579 136.352 389.466 136.41 389.345 136.441C389.224 136.472 389.098 136.476 388.975 136.452C388.85 136.427 388.733 136.375 388.631 136.299C388.529 136.223 388.445 136.126 388.385 136.013C388.304 135.903 388.252 135.773 388.234 135.637C388.217 135.501 388.234 135.363 388.285 135.235C388.332 135.123 388.403 135.022 388.493 134.939C388.583 134.857 388.689 134.794 388.805 134.756L390.855 133.829C390.915 133.829 390.945 133.799 390.945 133.739C390.945 133.739 390.945 133.679 390.855 133.659L388.805 132.731C388.685 132.688 388.577 132.617 388.489 132.526C388.401 132.434 388.334 132.324 388.295 132.203C388.258 132.082 388.247 131.954 388.262 131.829C388.278 131.703 388.32 131.583 388.385 131.474C388.445 131.362 388.529 131.265 388.631 131.189C388.733 131.113 388.85 131.06 388.975 131.035C389.096 131.011 389.22 131.012 389.341 131.038C389.461 131.064 389.575 131.114 389.675 131.185L391.505 132.532C391.565 132.532 391.605 132.582 391.645 132.532C391.685 132.482 391.695 132.532 391.645 132.422L391.385 130.207C391.367 129.951 391.45 129.697 391.615 129.499C391.702 129.407 391.808 129.334 391.925 129.286C392.042 129.238 392.168 129.215 392.295 129.22C392.42 129.218 392.544 129.243 392.658 129.295C392.772 129.347 392.873 129.423 392.954 129.519C393.034 129.614 393.092 129.727 393.124 129.848C393.155 129.968 393.159 130.095 393.135 130.217L392.885 132.432C392.885 132.492 392.885 132.522 392.885 132.542C392.908 132.555 392.934 132.562 392.96 132.562C392.986 132.562 393.012 132.555 393.035 132.542L394.865 131.225C394.963 131.144 395.077 131.086 395.2 131.055C395.323 131.024 395.451 131.021 395.575 131.045C395.7 131.067 395.818 131.118 395.919 131.194C396.02 131.271 396.101 131.37 396.155 131.484C396.234 131.596 396.285 131.725 396.302 131.861C396.319 131.997 396.303 132.134 396.255 132.262C396.205 132.373 396.133 132.472 396.044 132.554C395.954 132.637 395.849 132.7 395.735 132.741L393.675 133.669C393.625 133.669 393.595 133.719 393.595 133.749C393.595 133.779 393.595 133.819 393.675 133.839L395.735 134.766C395.855 134.813 395.963 134.884 396.052 134.975C396.142 135.066 396.211 135.175 396.255 135.295C396.296 135.416 396.308 135.545 396.291 135.671C396.273 135.797 396.227 135.918 396.155 136.023C396.101 136.138 396.02 136.237 395.919 136.314C395.818 136.39 395.7 136.441 395.575 136.462C395.453 136.487 395.327 136.487 395.205 136.461C395.082 136.435 394.967 136.385 394.865 136.313L393.035 134.966C393.012 134.953 392.986 134.946 392.96 134.946C392.934 134.946 392.908 134.953 392.885 134.966C392.885 134.966 392.885 135.016 392.885 135.076L393.135 137.29C393.158 137.417 393.151 137.547 393.115 137.67C393.078 137.793 393.013 137.905 392.925 137.999C392.834 138.088 392.726 138.158 392.608 138.204C392.489 138.25 392.362 138.272 392.235 138.268Z" fill="white"/>
<path d="M404.355 138.268C404.236 138.27 404.117 138.247 404.009 138.198C403.9 138.15 403.803 138.079 403.725 137.989C403.567 137.788 403.491 137.535 403.515 137.28L403.765 135.066C403.765 135.006 403.765 134.976 403.765 134.956C403.765 134.936 403.685 134.956 403.625 134.956L401.795 136.273C401.699 136.353 401.586 136.41 401.465 136.441C401.344 136.473 401.218 136.476 401.095 136.452C400.971 136.426 400.853 136.373 400.752 136.297C400.65 136.222 400.566 136.125 400.505 136.013C400.426 135.902 400.375 135.772 400.358 135.637C400.34 135.501 400.357 135.363 400.405 135.235C400.454 135.124 400.525 135.024 400.614 134.941C400.704 134.859 400.81 134.796 400.925 134.756L402.985 133.829C403.035 133.829 403.065 133.779 403.065 133.739C403.065 133.699 403.065 133.679 402.985 133.659L400.925 132.731C400.806 132.687 400.699 132.617 400.613 132.525C400.526 132.434 400.462 132.323 400.425 132.202C400.386 132.082 400.373 131.955 400.387 131.83C400.401 131.704 400.441 131.583 400.505 131.474C400.566 131.363 400.65 131.266 400.752 131.19C400.853 131.115 400.971 131.062 401.095 131.035C401.216 131.011 401.34 131.011 401.461 131.037C401.581 131.063 401.695 131.113 401.795 131.185L403.625 132.532C403.685 132.532 403.735 132.582 403.765 132.532C403.795 132.482 403.815 132.532 403.765 132.422L403.515 130.207C403.494 129.952 403.573 129.698 403.735 129.499C403.822 129.407 403.928 129.335 404.045 129.287C404.162 129.239 404.288 129.216 404.415 129.22C404.537 129.218 404.658 129.242 404.77 129.29C404.882 129.339 404.982 129.41 405.065 129.499C405.148 129.595 405.209 129.709 405.242 129.831C405.274 129.954 405.279 130.083 405.255 130.207L405.005 132.422C405.005 132.482 405.005 132.512 405.005 132.532C405.005 132.552 405.085 132.532 405.145 132.532L406.975 131.215C407.074 131.133 407.19 131.075 407.314 131.044C407.439 131.013 407.569 131.01 407.695 131.035C407.818 131.058 407.934 131.11 408.033 131.186C408.132 131.263 408.211 131.361 408.265 131.474C408.346 131.585 408.398 131.714 408.416 131.85C408.433 131.987 408.416 132.125 408.365 132.252C408.318 132.365 408.247 132.466 408.157 132.548C408.067 132.631 407.961 132.693 407.845 132.731L405.795 133.659C405.735 133.659 405.705 133.709 405.705 133.739C405.705 133.769 405.705 133.809 405.795 133.829L407.845 134.756C407.965 134.801 408.074 134.872 408.163 134.963C408.253 135.055 408.322 135.164 408.365 135.285C408.408 135.406 408.421 135.535 408.404 135.661C408.386 135.788 408.339 135.909 408.265 136.013C408.211 136.126 408.132 136.225 408.033 136.301C407.934 136.378 407.818 136.429 407.695 136.452C407.571 136.478 407.443 136.478 407.319 136.452C407.195 136.427 407.078 136.376 406.975 136.303L405.185 134.986C405.125 134.986 405.085 134.936 405.045 134.986C405.005 135.036 404.995 135.036 405.045 135.096L405.295 137.31C405.318 137.436 405.311 137.566 405.274 137.689C405.238 137.812 405.173 137.925 405.085 138.019C404.988 138.109 404.872 138.178 404.747 138.221C404.621 138.264 404.487 138.28 404.355 138.268Z" fill="white"/>
<path d="M416.485 138.268C416.366 138.271 416.247 138.248 416.138 138.2C416.029 138.151 415.933 138.079 415.855 137.989C415.693 137.79 415.614 137.536 415.635 137.28L415.895 135.066C415.895 135.006 415.895 134.976 415.895 134.956C415.874 134.943 415.85 134.936 415.825 134.936C415.8 134.936 415.776 134.943 415.755 134.956L413.925 136.273C413.829 136.352 413.716 136.41 413.595 136.441C413.474 136.472 413.348 136.476 413.225 136.452C413.099 136.427 412.98 136.375 412.876 136.299C412.773 136.223 412.687 136.126 412.625 136.013C412.547 135.901 412.498 135.771 412.482 135.636C412.466 135.5 412.485 135.362 412.535 135.235C412.582 135.123 412.653 135.022 412.743 134.939C412.833 134.857 412.939 134.794 413.055 134.756L415.105 133.829C415.165 133.829 415.195 133.799 415.195 133.739C415.195 133.739 415.195 133.679 415.105 133.659L413.055 132.731C412.934 132.69 412.825 132.62 412.736 132.528C412.648 132.436 412.582 132.325 412.545 132.203C412.509 132.082 412.497 131.956 412.511 131.83C412.525 131.705 412.563 131.584 412.625 131.474C412.687 131.362 412.773 131.264 412.876 131.189C412.98 131.113 413.099 131.06 413.225 131.035C413.346 131.011 413.47 131.012 413.591 131.038C413.711 131.064 413.825 131.114 413.925 131.185L415.755 132.532C415.776 132.545 415.8 132.552 415.825 132.552C415.85 132.552 415.874 132.545 415.895 132.532C415.895 132.532 415.945 132.532 415.895 132.422L415.635 130.207C415.622 130.08 415.636 129.951 415.676 129.829C415.715 129.707 415.78 129.595 415.865 129.499C415.952 129.407 416.058 129.334 416.175 129.286C416.292 129.238 416.418 129.215 416.545 129.22C416.67 129.218 416.794 129.243 416.908 129.295C417.022 129.347 417.123 129.423 417.204 129.519C417.284 129.614 417.342 129.727 417.374 129.848C417.405 129.968 417.409 130.095 417.385 130.217L417.185 132.482C417.185 132.542 417.185 132.572 417.185 132.592C417.208 132.605 417.234 132.612 417.26 132.612C417.286 132.612 417.312 132.605 417.335 132.592L419.155 131.275C419.255 131.194 419.371 131.137 419.495 131.106C419.62 131.075 419.749 131.071 419.875 131.095C420 131.117 420.117 131.169 420.218 131.245C420.319 131.321 420.4 131.421 420.455 131.534C420.534 131.646 420.585 131.775 420.602 131.911C420.619 132.047 420.603 132.184 420.555 132.312C420.505 132.423 420.433 132.522 420.344 132.604C420.254 132.687 420.149 132.75 420.035 132.791L417.975 133.719C417.925 133.719 417.895 133.769 417.895 133.799C417.895 133.829 417.895 133.869 417.975 133.889L420.035 134.816C420.154 134.863 420.263 134.934 420.352 135.025C420.442 135.116 420.511 135.225 420.555 135.345C420.596 135.466 420.608 135.595 420.591 135.721C420.573 135.847 420.527 135.968 420.455 136.073C420.4 136.187 420.319 136.286 420.218 136.362C420.117 136.439 420 136.49 419.875 136.512C419.751 136.537 419.624 136.536 419.5 136.511C419.376 136.485 419.259 136.435 419.155 136.363L417.335 135.016C417.312 135.003 417.286 134.996 417.26 134.996C417.234 134.996 417.208 135.003 417.185 135.016C417.185 135.016 417.185 135.066 417.185 135.126L417.435 137.34C417.458 137.467 417.451 137.596 417.415 137.719C417.378 137.842 417.313 137.955 417.225 138.049C417.124 138.135 417.006 138.2 416.879 138.238C416.751 138.275 416.617 138.286 416.485 138.268Z" fill="#FF8600"/>
</svg>
