<svg width="603" height="603" viewBox="0 0 603 603" fill="none" xmlns="http://www.w3.org/2000/svg">
<g opacity="0.5" filter="url(#filter0_f_682_5173)">
<circle cx="301.778" cy="301.111" r="167.778" fill="#693200"/>
</g>
<defs>
<filter id="filter0_f_682_5173" x="0.666656" y="0.000152588" width="602.221" height="602.222" filterUnits="userSpaceOnUse" color-interpolation-filters="sRGB">
<feFlood flood-opacity="0" result="BackgroundImageFix"/>
<feBlend mode="normal" in="SourceGraphic" in2="BackgroundImageFix" result="shape"/>
<feGaussianBlur stdDeviation="66.6667" result="effect1_foregroundBlur_682_5173"/>
</filter>
</defs>
</svg>
