<svg width="259" height="43" viewBox="0 0 259 43" fill="none" xmlns="http://www.w3.org/2000/svg">
<path d="M38.3601 25.7083C37.5861 26.1667 36.6831 26.25 35.9951 25.875C35.1351 25.375 34.6191 24.25 34.6191 22.7083V18C34.6191 15.75 33.7161 14.125 32.1681 13.7083C29.5451 12.9583 27.5671 16.0833 26.8361 17.25L22.1921 24.4583V15.5833C22.1491 13.5417 21.4611 12.3333 20.1711 11.9583C19.3111 11.7083 18.0211 11.8333 16.7741 13.6667L6.41114 29.75C5.03514 27.2083 4.30414 24.375 4.30414 21.5C4.30414 11.7917 12.3451 3.91666 22.1921 3.91666C32.0391 3.91666 40.0801 11.7917 40.0801 21.5V21.5417V21.5833C40.1661 23.4583 39.5641 24.9583 38.3601 25.7083ZM44.0361 21.5V21.4583V21.4167C43.9931 9.625 34.1891 0 22.1921 0C10.1521 0 0.348145 9.625 0.348145 21.5C0.348145 33.3333 10.1521 43 22.1921 43C27.7391 43 32.9851 40.9583 37.0271 37.25C37.8441 36.5 37.8871 35.2917 37.1131 34.5C36.3821 33.7083 35.1351 33.6667 34.3181 34.375C34.3181 34.375 34.3181 34.375 34.2751 34.4167C31.0071 37.4167 26.6211 39.125 22.1061 39.125C16.8171 39.125 12.0871 36.875 8.81914 33.2917L18.1501 18.7917V25.5C18.1501 28.7083 19.4401 29.75 20.5151 30.0417C21.5901 30.3333 23.2241 30.125 24.9871 27.4167L30.1041 19.375C30.2761 19.125 30.4051 18.875 30.5771 18.7083V22.7917C30.5771 25.7917 31.8241 28.2083 33.9741 29.375C35.9091 30.4583 38.3601 30.3333 40.3811 29.125C42.8751 27.5417 44.2081 24.7917 44.0361 21.5ZM74.4801 14.1667C74.9961 14.4583 75.4691 15.1667 75.4691 15.7917C75.4691 16.7917 74.6091 17.625 73.6201 17.625C73.3621 17.625 73.1471 17.5417 72.9321 17.5C71.7711 16.6667 70.3091 16.125 68.7611 16.125C65.1061 16.125 62.6121 19 62.6121 22.5833C62.6121 26.1667 65.1491 29 68.7611 29C70.5671 29 72.2011 28.2917 73.4051 27.1667C73.7061 26.9583 74.0931 26.8333 74.4801 26.8333C75.4691 26.8333 76.2431 27.5833 76.2431 28.5417C76.2431 29.1667 75.8561 29.7083 75.3831 30C73.6201 31.4583 71.2551 32.4167 68.8041 32.4167C63.2141 32.4167 58.6561 27.9583 58.6561 22.4583C58.6561 16.9583 63.2141 12.5 68.8041 12.5C70.8681 12.4583 72.8461 13.0833 74.4801 14.1667ZM84.7141 18.3333C88.5411 18.3333 91.7231 21.4583 91.7231 25.3333C91.7231 29.1667 88.4981 32.4583 84.7141 32.4583C80.7151 32.4583 77.4041 29.2083 77.4041 25.3333C77.4041 21.4583 80.7151 18.3333 84.7141 18.3333ZM84.6711 29C86.3481 29 87.7671 27.4583 87.7671 25.375C87.7671 23.2917 86.3481 21.9583 84.6711 21.9583C82.8651 21.9583 81.3601 23.25 81.3601 25.375C81.3601 27.4167 82.8651 29 84.6711 29ZM94.1311 30.2917V20.4583C94.1311 19.375 94.9911 18.5 96.1091 18.5C97.1841 18.5 98.0871 19.375 98.0871 20.4583V30.2917C98.0871 31.375 97.1841 32.25 96.1091 32.25C95.0341 32.25 94.1311 31.3333 94.1311 30.2917ZM93.8301 14.7917C93.8301 13.5 94.8621 12.5 96.1091 12.5C97.3991 12.5 98.4311 13.5417 98.4311 14.7917C98.4311 16.0417 97.3991 17.0417 96.1091 17.0417C94.8191 17 93.8301 16 93.8301 14.7917ZM105.655 24.9583V30.2917C105.655 31.375 104.752 32.25 103.677 32.25C102.602 32.25 101.699 31.375 101.699 30.2917V20C101.699 19.1667 102.387 18.5 103.247 18.5C104.107 18.5 104.752 19.2083 104.752 20C106.343 18.5417 107.762 18.3333 109.095 18.3333C113.051 18.3333 114.814 21.2083 114.814 24.5V30.2917C114.814 31.375 113.911 32.25 112.836 32.25C111.761 32.25 110.858 31.375 110.858 30.2917V24.9583C110.858 23.2917 110.643 21.875 108.149 21.875C106.386 21.875 105.655 23.2917 105.655 24.9583ZM127.628 27C127.155 27 126.854 26.7917 126.596 26.5L121.995 21.6667V30.2917C121.995 31.375 121.092 32.25 120.017 32.25C118.942 32.25 118.039 31.375 118.039 30.2917V13.2083C118.168 12.9167 118.469 12.7083 118.77 12.7083C119.114 12.7083 119.415 13 119.63 13.2083L126.983 21.2083C127.198 21.4583 127.456 21.5833 127.628 21.5833C127.757 21.5833 128.058 21.4583 128.273 21.2083L135.626 13.2083C135.841 13 136.099 12.7083 136.486 12.7083C136.83 12.7083 137.131 12.9167 137.217 13.2083V30.2917C137.217 31.375 136.357 32.25 135.239 32.25C134.164 32.25 133.261 31.375 133.261 30.2917V21.6667L128.66 26.5C128.316 26.7917 128.015 27 127.628 27ZM146.634 29C148.397 29 149.902 27.4583 149.902 25.375C149.902 23.2917 148.354 21.9167 146.634 21.9167C144.914 21.9167 143.495 23.3333 143.495 25.375C143.495 27.375 144.871 29 146.634 29ZM150.848 30.75L150.762 30.2917C149.988 31.75 147.537 32.4167 145.989 32.4167C142.291 32.4167 139.539 29.1667 139.539 25.2917C139.539 21.4583 142.334 18.2917 146.204 18.2917C146.849 18.2917 149.085 18.4583 150.805 20.4167L150.891 19.9583C150.891 19.125 151.536 18.4583 152.396 18.4583C153.256 18.4583 153.944 19.1667 153.944 19.9583V30.7083C153.944 31.5417 153.256 32.2083 152.396 32.2083C151.493 32.25 150.848 31.5417 150.848 30.75ZM164.823 21.875H164.393C161.899 22 161.426 23.375 161.426 24.9583V30.2917C161.426 31.375 160.523 32.25 159.448 32.25C158.373 32.25 157.47 31.375 157.47 30.2917V20C157.47 19.1667 158.158 18.5 159.018 18.5C159.878 18.5 160.523 19.2083 160.523 20C161.985 18.6667 163.189 18.375 164.393 18.3333H164.78C165.726 18.3333 166.586 19.125 166.586 20.125C166.629 21.0417 165.769 21.875 164.823 21.875ZM180.088 29.375C180.26 29.6667 180.389 29.9583 180.389 30.2917C180.389 31.2917 179.443 32.2083 178.411 32.2083C177.723 32.2083 177.121 31.7083 176.648 31.125L172.09 26V30.25C172.09 31.3333 171.187 32.2083 170.112 32.2083C169.037 32.2083 168.134 31.3333 168.134 30.25V14.625C168.134 13.5417 168.994 12.6667 170.112 12.6667C171.23 12.6667 172.09 13.5417 172.09 14.625V24.375L176.648 19.5C177.121 19 177.68 18.4583 178.368 18.4583C179.357 18.4583 180.26 19.3333 180.26 20.3333C180.26 20.625 180.174 20.9583 180.002 21.2083L176.39 25.0417L180.088 29.375ZM187.828 21.9167C186.753 21.9167 184.99 22.4583 184.99 24.0833H190.709C190.666 22.4583 188.86 21.9167 187.828 21.9167ZM192.988 26.5417H184.99C184.99 28.8333 187.269 29.2083 188.258 29.2083C188.989 29.2083 190.021 29.0833 190.838 28.7083C191.096 28.5417 191.483 28.4167 191.87 28.4167C192.73 28.4167 193.461 29.125 193.461 30C193.461 30.5833 193.074 31.0833 192.601 31.375C191.397 32.25 189.806 32.4583 188.301 32.4583C184.302 32.4583 180.991 30.375 180.991 25.5C180.991 21.6667 183.012 18.3333 187.742 18.3333C191.569 18.3333 194.45 20.75 194.536 25.0417C194.536 25.8333 193.848 26.5417 192.988 26.5417ZM203.996 32.4167H202.921C199.911 32.4167 198.148 31.125 198.148 26.5833V21.875H197.116C196.17 21.875 195.353 21.0417 195.353 20.125C195.353 19.125 196.213 18.3333 197.116 18.3333H198.148V14.7083C198.148 13.625 199.008 12.75 200.126 12.75C201.201 12.75 202.104 13.625 202.104 14.7083V18.3333H203.738C204.684 18.3333 205.501 19.125 205.501 20.125C205.501 21.0417 204.641 21.875 203.738 21.875H202.104V25.8333C202.104 28.4583 202.233 29 203.437 29H203.996C204.942 29 205.759 29.75 205.759 30.7083C205.759 31.625 204.942 32.4167 203.996 32.4167ZM223.131 14.1667C223.647 14.4583 224.12 15.1667 224.12 15.7917C224.12 16.7917 223.26 17.625 222.271 17.625C222.013 17.625 221.798 17.5417 221.583 17.5C220.422 16.6667 218.96 16.125 217.412 16.125C213.757 16.125 211.263 19 211.263 22.5833C211.263 26.1667 213.8 29 217.412 29C219.218 29 220.852 28.2917 222.056 27.1667C222.357 26.9583 222.744 26.8333 223.131 26.8333C224.12 26.8333 224.894 27.5833 224.894 28.5417C224.894 29.1667 224.507 29.7083 224.034 30C222.271 31.4583 219.906 32.4167 217.455 32.4167C211.865 32.4167 207.307 27.9583 207.307 22.4583C207.307 16.9583 211.865 12.5 217.455 12.5C219.519 12.4583 221.54 13.0833 223.131 14.1667ZM233.15 29C234.913 29 236.418 27.4583 236.418 25.375C236.418 23.2917 234.87 21.9167 233.15 21.9167C231.387 21.9167 230.011 23.3333 230.011 25.375C230.011 27.375 231.43 29 233.15 29ZM237.364 30.75L237.278 30.2917C236.504 31.75 234.053 32.4167 232.505 32.4167C228.807 32.4167 226.055 29.1667 226.055 25.2917C226.055 21.4583 228.85 18.2917 232.72 18.2917C233.365 18.2917 235.601 18.4583 237.321 20.4167L237.407 19.9583C237.407 19.125 238.052 18.4583 238.912 18.4583C239.772 18.4583 240.46 19.1667 240.46 19.9583V30.7083C240.46 31.5417 239.772 32.2083 238.912 32.2083C238.009 32.25 237.364 31.5417 237.364 30.75ZM251.253 29C253.016 29 254.392 27.375 254.392 25.375C254.392 23.2917 252.973 21.9167 251.253 21.9167C249.49 21.9167 247.985 23.2917 247.985 25.375C247.985 27.4583 249.49 29 251.253 29ZM247.985 31.2917V36.1667C247.985 37.25 247.082 38.125 246.007 38.125C244.932 38.125 244.029 37.25 244.029 36.1667V20C244.029 19.1667 244.717 18.5 245.577 18.5C246.437 18.5 247.082 19.2083 247.082 20.1667C248.544 18.7083 250.35 18.3333 251.726 18.3333C255.553 18.3333 258.391 21.4583 258.391 25.3333C258.391 29.1667 255.682 32.4583 251.941 32.4583C250.78 32.4167 249.06 32.0833 247.985 31.2917Z" fill="white"/>
</svg>
