<svg width="163" height="43" viewBox="0 0 163 43" fill="none" xmlns="http://www.w3.org/2000/svg">
<path d="M67.3085 16.8827C66.875 15.1484 65.7639 13.9018 63.5689 13.9018C60.3441 13.9018 59.0163 16.7472 59.0163 19.6197C59.0163 22.4921 60.3712 25.3375 63.5689 25.3375C65.8994 25.3375 67.173 23.6032 67.3898 21.4082H69.9642C69.7474 25.0123 67.2001 27.4783 63.5689 27.4783C59.0705 27.4783 56.3877 23.9013 56.3877 19.6197C56.3877 15.338 59.0705 11.761 63.5689 11.761C66.9563 11.7881 69.6119 13.6579 69.9371 16.8827H67.3085ZM71.536 21.6792C71.536 18.346 73.5413 15.9613 77.0099 15.9613C80.4786 15.9613 82.4839 18.346 82.4839 21.6792C82.4839 25.0123 80.4786 27.4241 77.0099 27.4241C73.5413 27.4241 71.536 25.0123 71.536 21.6792ZM80.0992 21.6792C80.0992 19.8094 79.1507 17.8582 77.0099 17.8582C74.8691 17.8582 73.9207 19.8094 73.9207 21.6792C73.9207 23.549 74.8691 25.5272 77.0099 25.5272C79.1507 25.5272 80.0992 23.5761 80.0992 21.6792ZM84.5434 12.1133H86.9281V14.3896H84.5434V12.1133ZM84.5434 16.2594H86.9281V27.1261H84.5434V16.2594ZM89.5567 16.2594H91.833V17.8582L91.8872 17.9124C92.5918 16.7201 93.8654 15.9613 95.2746 15.9884C97.6322 15.9884 99.1226 17.2621 99.1226 19.6739V27.1261H96.7379V20.2971C96.6837 18.5899 96.0333 17.8582 94.6242 17.8582C93.0254 17.8582 91.9956 19.1048 91.9956 20.7036V27.1261H89.6109V16.2594H89.5567ZM115.057 27.1261H113.377L112.97 25.3646C111.561 26.9635 110.287 27.4783 108.445 27.4783C103.946 27.4783 101.263 23.9013 101.263 19.6197C101.263 15.338 103.946 11.761 108.445 11.761C111.724 11.761 114.488 13.4953 114.867 16.8827H112.293C112.049 14.9045 110.314 13.9018 108.418 13.9018C105.193 13.9018 103.865 16.7472 103.865 19.6197C103.865 22.4921 105.22 25.3375 108.418 25.3375C111.1 25.3917 112.591 23.7658 112.618 21.2185H108.634V19.2132H115.03L115.057 27.1261ZM119.447 22.3025C119.447 24.0097 120.368 25.5272 122.373 25.5272C123.755 25.5272 124.596 24.931 125.029 23.7116H127.305C126.791 26.0963 124.758 27.4241 122.373 27.4241C118.959 27.4241 117.062 25.0394 117.062 21.7063C117.062 18.617 119.094 15.9613 122.319 15.9613C125.734 15.9613 127.847 19.0506 127.441 22.3025H119.447ZM125.029 20.7307C124.948 19.2132 123.918 17.8582 122.292 17.8582C120.639 17.8582 119.501 19.1048 119.42 20.7307H125.029ZM136.6 19.8906C136.411 18.5628 135.435 17.8582 134.107 17.8582C132.861 17.8582 131.126 18.5086 131.126 21.8147C131.126 23.6303 131.912 25.5272 133.999 25.5272C135.381 25.5272 136.356 24.6059 136.573 23.0341H138.958C138.524 25.8524 136.79 27.397 133.972 27.397C130.557 27.397 128.687 24.9852 128.687 21.7876C128.687 18.5086 130.476 15.9342 134.053 15.9342C136.573 15.9342 138.714 17.2079 138.958 19.8636H136.6V19.8906ZM141.017 12.1133H143.402V20.6494L147.738 16.2594H150.692L146.519 20.2429L151.071 27.1261H148.144L144.811 21.8418L143.375 23.2238V27.1261H140.99V12.1133H141.017ZM151.722 21.6792C151.722 18.346 153.727 15.9613 157.196 15.9613C160.691 15.9613 162.669 18.346 162.669 21.6792C162.669 25.0123 160.664 27.4241 157.196 27.4241C153.727 27.4241 151.722 25.0123 151.722 21.6792ZM160.312 21.6792C160.312 19.8094 159.363 17.8582 157.223 17.8582C155.082 17.8582 154.133 19.8094 154.133 21.6792C154.133 23.549 155.082 25.5272 157.223 25.5272C159.363 25.5272 160.312 23.5761 160.312 21.6792Z" fill="white"/>
<path d="M43.0823 21.4082C43.1094 30.1069 37.9335 37.9656 29.9122 41.3258C21.8909 44.6861 12.6502 42.8976 6.47169 36.7732C0.293143 30.6489 -1.57668 21.4082 1.70228 13.3598C4.98125 5.31144 12.8128 0.0542552 21.4845 5.74334e-05C33.3809 -0.0270414 43.0281 9.53886 43.0823 21.4082Z" fill="#8DC63F"/>
<path d="M41.4834 21.4081C41.5105 29.4565 36.714 36.719 29.2889 39.8353C21.8638 42.9517 13.3277 41.2716 7.60982 35.635C1.89195 29.9713 0.157623 21.4352 3.1927 14.0101C6.22777 6.55792 13.4632 1.70722 21.4844 1.65302C32.4866 1.59882 41.4292 10.4331 41.4834 21.4081Z" fill="#F9E988"/>
<path d="M21.9722 2.92675C23.2458 2.70996 24.5195 2.70996 25.7931 2.92675C27.0668 3.11645 28.3133 3.55003 29.4515 4.1462C30.5896 4.76948 31.5652 5.60954 32.5407 6.39541C33.5163 7.18128 34.4918 7.99425 35.4132 8.88851C36.3617 9.75568 37.1746 10.7583 37.8521 11.8423C38.5567 12.9262 39.1258 14.0915 39.5593 15.2838C40.3994 17.7227 40.6704 20.3513 40.2639 22.8444H40.1284C39.7219 20.3513 39.1529 17.9937 38.2586 15.7445C37.8521 14.6064 37.3372 13.4953 36.7953 12.4385C36.1991 11.3816 35.5758 10.3247 34.8712 9.34919C34.1667 8.34653 33.2724 7.45227 32.2697 6.7206C31.2671 5.98893 30.1018 5.52825 28.9908 5.09467C27.8797 4.66109 26.7416 4.2004 25.5763 3.84812C24.4111 3.52293 23.2187 3.25194 21.9722 3.00805V2.92675Z" fill="white"/>
<path d="M31.6739 14.3895C30.2376 13.983 28.7472 13.3869 27.2296 12.7907C27.1483 12.4113 26.7961 11.9506 26.1186 11.3545C25.143 10.4873 23.2732 10.5144 21.6744 10.8938C19.9129 10.4873 18.1515 10.3247 16.4714 10.7312C2.73225 14.525 10.5096 23.7386 5.46924 33.0336C6.17381 34.5511 13.9241 43.4395 25.1159 41.0548C25.1159 41.0548 21.295 31.8683 29.9395 27.4512C36.9581 23.8741 41.9985 17.2078 31.6739 14.3895Z" fill="#8BC53F"/>
<path d="M21.6743 10.8938C22.677 10.9751 26.3082 12.1403 27.2296 12.7907C26.4437 10.5415 23.8422 10.2434 21.6743 10.8938Z" fill="#009345"/>
<path d="M33.3807 20.4325C33.3807 21.1642 32.4865 21.5436 31.9716 21.0287C31.4567 20.5138 31.809 19.6196 32.5407 19.5925C33.0014 19.6196 33.3807 19.9718 33.3807 20.4325ZM22.6225 16.6116C22.6225 18.1562 21.674 19.5654 20.2378 20.1615C18.8016 20.7577 17.1485 20.4325 16.0375 19.3215C14.9264 18.2104 14.6012 16.5574 15.1974 15.1212C15.7936 13.6849 17.2027 12.7365 18.7474 12.7365C19.7771 12.7365 20.7527 13.1429 21.4572 13.8475C22.216 14.6063 22.6225 15.5818 22.6225 16.6116Z" fill="white"/>
<path d="M21.4845 16.6387C21.4845 17.7227 20.8342 18.7253 19.8044 19.1318C18.8017 19.5383 17.6365 19.3215 16.8506 18.5356C16.0648 17.7498 15.848 16.6116 16.2545 15.5819C16.6609 14.5792 17.6636 13.9017 18.7476 13.9017C20.2651 13.9288 21.4845 15.1483 21.4845 16.6387Z" fill="#58595B"/>
<path d="M36.4974 22.1397C33.3811 24.3347 29.8311 25.9878 24.8178 25.9878C22.4602 25.9878 21.9995 23.4947 20.4278 24.7141C19.6148 25.3374 16.7966 26.7465 14.5474 26.6652C12.2981 26.5568 8.6669 25.229 7.66424 20.4596C7.25776 25.2561 7.06807 28.779 5.25244 32.8167C8.82949 38.5616 17.3656 42.9788 25.1159 41.0818C24.2759 35.2556 29.3704 29.5648 32.2158 26.6652C33.3269 25.5271 35.4135 23.7386 36.4974 22.1397Z" fill="#8BC53F"/>
<path d="M36.3617 22.2753C35.3861 23.1695 34.248 23.8199 33.0827 24.389C31.8904 24.9581 30.6709 25.3916 29.3973 25.7439C28.1236 26.0691 26.7958 26.313 25.4679 26.2046C24.113 26.0962 22.758 25.6355 21.8638 24.6329L21.918 24.5787C23.0019 25.2832 24.2756 25.5271 25.5221 25.5813C26.7958 25.6084 28.0694 25.5271 29.316 25.2832C30.5625 25.0123 31.8091 24.6329 33.0014 24.1451C34.1938 23.6573 35.359 23.0882 36.3888 22.2753H36.3617Z" fill="#58595B"/>
</svg>
