<svg width="132" height="32" viewBox="0 0 132 32" fill="none" xmlns="http://www.w3.org/2000/svg">
<circle cx="16" cy="16" r="10" fill="#FF9901"/>
<circle cx="16" cy="16" r="15" stroke="#FF9901" stroke-width="2"/>
<rect x="32" y="15" width="100" height="2" fill="url(#paint0_linear_40_4521)"/>
<defs>
<linearGradient id="paint0_linear_40_4521" x1="32" y1="16.0007" x2="132" y2="16.0007" gradientUnits="userSpaceOnUse">
<stop stop-color="#FF9901"/>
<stop offset="1" stop-color="#FF9901" stop-opacity="0"/>
</linearGradient>
</defs>
</svg>
