<svg width="883" height="145" viewBox="0 0 883 145" fill="none" xmlns="http://www.w3.org/2000/svg">
<path d="M119 25.2V26.2H120V25.2H119ZM73.6 25.2V24.2H72.6V25.2H73.6ZM73.6 143V144H74.6V143H73.6ZM46.2 143H45.2V144H46.2V143ZM46.2 25.2H47.2V24.2H46.2V25.2ZM0.8 25.2H-0.2V26.2H0.8V25.2ZM0.8 0.999992V-7.62939e-06H-0.2V0.999992H0.8ZM119 0.999992H120V-7.62939e-06H119V0.999992ZM119 24.2H73.6V26.2H119V24.2ZM72.6 25.2V143H74.6V25.2H72.6ZM73.6 142H46.2V144H73.6V142ZM47.2 143V25.2H45.2V143H47.2ZM46.2 24.2H0.8V26.2H46.2V24.2ZM1.8 25.2V0.999992H-0.2V25.2H1.8ZM0.8 1.99999H119V-7.62939e-06H0.8V1.99999ZM118 0.999992V25.2H120V0.999992H118ZM235.228 118.8H236.228V117.8H235.228V118.8ZM235.228 143V144H236.228V143H235.228ZM136.628 143H135.628V144H136.628V143ZM136.628 0.999992V-7.62939e-06H135.628V0.999992H136.628ZM233.428 0.999992H234.428V-7.62939e-06H233.428V0.999992ZM233.428 25.2V26.2H234.428V25.2H233.428ZM164.228 25.2V24.2H163.228V25.2H164.228ZM164.228 59.4H163.228V60.4H164.228V59.4ZM224.028 59.4H225.028V58.4H224.028V59.4ZM224.028 81.8V82.8H225.028V81.8H224.028ZM164.228 81.8V80.8H163.228V81.8H164.228ZM164.228 118.8H163.228V119.8H164.228V118.8ZM234.228 118.8V143H236.228V118.8H234.228ZM235.228 142H136.628V144H235.228V142ZM137.628 143V0.999992H135.628V143H137.628ZM136.628 1.99999H233.428V-7.62939e-06H136.628V1.99999ZM232.428 0.999992V25.2H234.428V0.999992H232.428ZM233.428 24.2H164.228V26.2H233.428V24.2ZM163.228 25.2V59.4H165.228V25.2H163.228ZM164.228 60.4H224.028V58.4H164.228V60.4ZM223.028 59.4V81.8H225.028V59.4H223.028ZM224.028 80.8H164.228V82.8H224.028V80.8ZM163.228 81.8V118.8H165.228V81.8H163.228ZM164.228 119.8H235.228V117.8H164.228V119.8ZM341.345 38.2L340.638 38.9071L341.584 39.8527L342.224 38.6783L341.345 38.2ZM336.145 34.4L335.591 35.232L335.601 35.2389L335.611 35.2455L336.145 34.4ZM327.145 29.8L326.756 30.721L326.768 30.7261L327.145 29.8ZM315.745 26L315.466 26.9603L315.481 26.9645L315.495 26.9683L315.745 26ZM286.145 28.4L285.559 27.5901L285.552 27.595L285.545 27.6L286.145 28.4ZM294.945 55.2L294.629 56.1487L294.945 55.2ZM312.945 60.4L312.694 61.368L312.702 61.3699L312.709 61.3717L312.945 60.4ZM337.145 68.8L336.705 69.6979L336.716 69.7031L336.726 69.708L337.145 68.8ZM352.945 81.6L352.116 82.1595L352.125 82.1715L352.133 82.1832L352.945 81.6ZM354.345 122L355.231 122.465L355.235 122.456L354.345 122ZM342.745 135L342.185 134.171L342.745 135ZM325.945 142.4L326.173 143.374L326.183 143.371L326.193 143.369L325.945 142.4ZM264.345 136.2L263.951 137.119L263.959 137.123L263.967 137.126L264.345 136.2ZM246.345 126.2L245.455 125.744L245.06 126.516L245.768 127.016L246.345 126.2ZM258.545 102.4L259.252 101.693L258.282 100.722L257.655 101.944L258.545 102.4ZM264.945 107.2L264.399 108.038L264.412 108.046L264.425 108.054L264.945 107.2ZM276.145 113L275.732 113.91L275.743 113.916L275.755 113.921L276.145 113ZM290.545 117.8L290.297 118.769L290.545 117.8ZM323.345 116L322.797 115.164L323.345 116ZM311.745 89L311.422 89.9464L311.433 89.9499L311.443 89.9532L311.745 89ZM292.345 83L292.62 82.0385L292.618 82.0379L292.345 83ZM269.945 74.6L269.475 75.4824L269.482 75.4865L269.49 75.4904L269.945 74.6ZM256.545 62.6L255.692 63.1214L256.545 62.6ZM258.945 20.2L258.126 19.6265L258.124 19.6299L258.945 20.2ZM277.745 5.2L278.135 6.12075L278.142 6.11796L278.149 6.11509L277.745 5.2ZM322.745 2.19999L322.503 3.17014L322.508 3.17139L322.745 2.19999ZM339.545 8L339.964 7.09204L339.545 8ZM353.545 15.8L354.424 16.2783L354.858 15.4812L354.106 14.9721L353.545 15.8ZM342.052 37.4929C341.034 36.4741 339.217 35.1571 336.679 33.5545L335.611 35.2455C338.141 36.8429 339.79 38.0592 340.638 38.9071L342.052 37.4929ZM336.7 33.5679C334.229 31.9204 331.165 30.3578 327.523 28.8739L326.768 30.7261C330.326 32.1756 333.262 33.6796 335.591 35.232L336.7 33.5679ZM327.535 28.879C324.017 27.3908 320.17 26.1091 315.995 25.0317L315.495 26.9683C319.587 28.0242 323.34 29.2758 326.756 30.721L327.535 28.879ZM316.024 25.0396C311.801 23.8136 307.507 23.2 303.145 23.2V25.2C307.317 25.2 311.423 25.7864 315.466 26.9603L316.024 25.0396ZM303.145 23.2C295.579 23.2 289.668 24.6145 285.559 27.5901L286.732 29.2099C290.356 26.5855 295.779 25.2 303.145 25.2V23.2ZM285.545 27.6C281.536 30.6068 279.545 34.8498 279.545 40.2H281.545C281.545 35.4168 283.288 31.7931 286.745 29.2L285.545 27.6ZM279.545 40.2C279.545 44.2905 280.824 47.6389 283.459 50.127L284.832 48.673C282.666 46.6278 281.545 43.8428 281.545 40.2H279.545ZM283.459 50.127C286.006 52.5326 289.757 54.5248 294.629 56.1487L295.262 54.2513C290.533 52.6752 287.085 50.8007 284.832 48.673L283.459 50.127ZM294.629 56.1487C299.458 57.7583 305.482 59.498 312.694 61.368L313.196 59.432C306.009 57.5686 300.033 55.8417 295.262 54.2513L294.629 56.1487ZM312.709 61.3717C321.99 63.6256 329.985 66.4037 336.705 69.6979L337.585 67.9021C330.706 64.5296 322.567 61.7077 313.181 59.4282L312.709 61.3717ZM336.726 69.708C343.525 72.8458 348.636 77.0037 352.116 82.1595L353.774 81.0405C350.054 75.5296 344.632 71.1542 337.564 67.892L336.726 69.708ZM352.133 82.1832C355.708 87.1624 357.545 93.8698 357.545 102.4H359.545C359.545 93.5968 357.65 86.4376 353.758 81.0168L352.133 82.1832ZM357.545 102.4C357.545 109.878 356.168 116.248 353.455 121.544L355.235 122.456C358.123 116.819 359.545 110.122 359.545 102.4H357.545ZM353.46 121.535C350.736 126.724 346.98 130.932 342.185 134.171L343.305 135.829C348.377 132.402 352.355 127.943 355.231 122.465L353.46 121.535ZM342.185 134.171C337.355 137.435 331.863 139.857 325.698 141.431L326.193 143.369C332.561 141.743 338.269 139.232 343.305 135.829L342.185 134.171ZM325.717 141.426C319.532 142.874 312.943 143.6 305.945 143.6V145.6C313.081 145.6 319.825 144.859 326.173 143.374L325.717 141.426ZM305.945 143.6C298.948 143.6 291.95 142.874 284.949 141.421L284.542 143.379C291.674 144.859 298.809 145.6 305.945 145.6V143.6ZM284.949 141.421C277.94 139.966 271.199 137.917 264.723 135.274L263.967 137.126C270.559 139.816 277.417 141.9 284.542 143.379L284.949 141.421ZM264.739 135.281C258.267 132.507 252.329 129.207 246.923 125.384L245.768 127.016C251.295 130.926 257.357 134.293 263.951 137.119L264.739 135.281ZM247.235 126.656L259.435 102.856L257.655 101.944L245.455 125.744L247.235 126.656ZM257.838 103.107C259.117 104.386 261.325 106.033 264.399 108.038L265.492 106.362C262.432 104.367 260.374 102.814 259.252 101.693L257.838 103.107ZM264.425 108.054C267.536 109.947 271.307 111.899 275.732 113.91L276.559 112.09C272.184 110.101 268.488 108.186 265.465 106.346L264.425 108.054ZM275.755 113.921C280.206 115.809 285.054 117.424 290.297 118.769L290.794 116.831C285.636 115.509 280.885 113.924 276.536 112.079L275.755 113.921ZM290.297 118.769C295.578 120.123 300.928 120.8 306.345 120.8V118.8C301.096 118.8 295.913 118.144 290.794 116.831L290.297 118.769ZM306.345 120.8C313.898 120.8 319.792 119.524 323.893 116.836L322.797 115.164C319.165 117.543 313.726 118.8 306.345 118.8V120.8ZM323.893 116.836C328.045 114.116 330.145 110.2 330.145 105.2H328.145C328.145 109.533 326.379 112.817 322.797 115.164L323.893 116.836ZM330.145 105.2C330.145 100.66 328.496 97.0219 325.162 94.4125L323.929 95.9875C326.728 98.1781 328.145 101.207 328.145 105.2H330.145ZM325.162 94.4125C321.968 91.9129 317.579 89.8007 312.048 88.0468L311.443 89.9532C316.845 91.666 320.99 93.6871 323.929 95.9875L325.162 94.4125ZM312.068 88.0536C306.581 86.18 300.098 84.175 292.62 82.0385L292.071 83.9615C299.526 86.0917 305.976 88.0866 311.422 89.9464L312.068 88.0536ZM292.618 82.0379C283.726 79.5163 276.325 76.7377 270.4 73.7096L269.49 75.4904C275.566 78.5957 283.098 81.417 292.072 83.9621L292.618 82.0379ZM270.416 73.7176C264.54 70.5841 260.221 66.6973 257.399 62.0785L255.692 63.1214C258.736 68.1027 263.35 72.2159 269.475 75.4824L270.416 73.7176ZM257.399 62.0785C254.585 57.4739 253.145 51.6667 253.145 44.6H251.145C251.145 51.9332 252.639 58.1261 255.692 63.1214L257.399 62.0785ZM253.145 44.6C253.145 35.0242 255.374 27.1017 259.767 20.7701L258.124 19.6299C253.45 26.365 251.145 34.7091 251.145 44.6H253.145ZM259.765 20.7735C264.318 14.2684 270.433 9.3847 278.135 6.12075L277.355 4.27925C269.325 7.68196 262.906 12.7983 258.126 19.6265L259.765 20.7735ZM278.149 6.11509C285.874 2.71061 294.468 0.999992 303.945 0.999992V-1.00001C294.223 -1.00001 285.35 0.756042 277.342 4.28491L278.149 6.11509ZM303.945 0.999992C310.538 0.999992 316.723 1.7252 322.503 3.17013L322.988 1.22985C317.034 -0.258553 310.685 -1.00001 303.945 -1.00001V0.999992ZM322.508 3.17139C328.45 4.62398 333.989 6.5369 339.126 8.90796L339.964 7.09204C334.702 4.66309 329.04 2.70934 322.983 1.22859L322.508 3.17139ZM339.126 8.90796C344.284 11.2884 348.902 13.8625 352.984 16.6279L354.106 14.9721C349.922 12.1375 345.207 9.51157 339.964 7.09204L339.126 8.90796ZM352.667 15.3217L340.467 37.7217L342.224 38.6783L354.424 16.2783L352.667 15.3217ZM485.602 25.2V26.2H486.602V25.2H485.602ZM440.202 25.2V24.2H439.202V25.2H440.202ZM440.202 143V144H441.202V143H440.202ZM412.802 143H411.802V144H412.802V143ZM412.802 25.2H413.802V24.2H412.802V25.2ZM367.402 25.2H366.402V26.2H367.402V25.2ZM367.402 0.999992V-7.62939e-06H366.402V0.999992H367.402ZM485.602 0.999992H486.602V-7.62939e-06H485.602V0.999992ZM485.602 24.2H440.202V26.2H485.602V24.2ZM439.202 25.2V143H441.202V25.2H439.202ZM440.202 142H412.802V144H440.202V142ZM413.802 143V25.2H411.802V143H413.802ZM412.802 24.2H367.402V26.2H412.802V24.2ZM368.402 25.2V0.999992H366.402V25.2H368.402ZM367.402 1.99999H485.602V-7.62939e-06H367.402V1.99999ZM484.602 0.999992V25.2H486.602V0.999992H484.602ZM530.83 51.8L531.613 51.1782L529.83 48.932V51.8H530.83ZM530.83 143V144H531.83V143H530.83ZM503.23 143H502.23V144H503.23V143ZM503.23 0.999992V-7.62939e-06H502.23V0.999992H503.23ZM525.23 0.999992L526.017 0.382915L525.716 -7.62939e-06H525.23V0.999992ZM598.63 94.6L597.843 95.2171L599.63 97.4957V94.6H598.63ZM598.63 1.19999V0.199989H597.63V1.19999H598.63ZM626.23 1.19999H627.23V0.199989H626.23V1.19999ZM626.23 143V144H627.23V143H626.23ZM603.23 143L602.446 143.622L602.747 144H603.23V143ZM529.83 51.8V143H531.83V51.8H529.83ZM530.83 142H503.23V144H530.83V142ZM504.23 143V0.999992H502.23V143H504.23ZM503.23 1.99999H525.23V-7.62939e-06H503.23V1.99999ZM524.443 1.61707L597.843 95.2171L599.417 93.9829L526.017 0.382915L524.443 1.61707ZM599.63 94.6V1.19999H597.63V94.6H599.63ZM598.63 2.19999H626.23V0.199989H598.63V2.19999ZM625.23 1.19999V143H627.23V1.19999H625.23ZM626.23 142H603.23V144H626.23V142ZM604.013 142.378L531.613 51.1782L530.047 52.4218L602.446 143.622L604.013 142.378ZM754.369 118.8H755.369V117.8H754.369V118.8ZM754.369 143V144H755.369V143H754.369ZM655.769 143H654.769V144H655.769V143ZM655.769 0.999992V-7.62939e-06H654.769V0.999992H655.769ZM752.569 0.999992H753.569V-7.62939e-06H752.569V0.999992ZM752.569 25.2V26.2H753.569V25.2H752.569ZM683.369 25.2V24.2H682.369V25.2H683.369ZM683.369 59.4H682.369V60.4H683.369V59.4ZM743.169 59.4H744.169V58.4H743.169V59.4ZM743.169 81.8V82.8H744.169V81.8H743.169ZM683.369 81.8V80.8H682.369V81.8H683.369ZM683.369 118.8H682.369V119.8H683.369V118.8ZM753.369 118.8V143H755.369V118.8H753.369ZM754.369 142H655.769V144H754.369V142ZM656.769 143V0.999992H654.769V143H656.769ZM655.769 1.99999H752.569V-7.62939e-06H655.769V1.99999ZM751.569 0.999992V25.2H753.569V0.999992H751.569ZM752.569 24.2H683.369V26.2H752.569V24.2ZM682.369 25.2V59.4H684.369V25.2H682.369ZM683.369 60.4H743.169V58.4H683.369V60.4ZM742.169 59.4V81.8H744.169V59.4H742.169ZM743.169 80.8H683.369V82.8H743.169V80.8ZM682.369 81.8V118.8H684.369V81.8H682.369ZM683.369 119.8H754.369V117.8H683.369V119.8ZM882.086 25.2V26.2H883.086V25.2H882.086ZM836.686 25.2V24.2H835.686V25.2H836.686ZM836.686 143V144H837.686V143H836.686ZM809.286 143H808.286V144H809.286V143ZM809.286 25.2H810.286V24.2H809.286V25.2ZM763.886 25.2H762.886V26.2H763.886V25.2ZM763.886 0.999992V-7.62939e-06H762.886V0.999992H763.886ZM882.086 0.999992H883.086V-7.62939e-06H882.086V0.999992ZM882.086 24.2H836.686V26.2H882.086V24.2ZM835.686 25.2V143H837.686V25.2H835.686ZM836.686 142H809.286V144H836.686V142ZM810.286 143V25.2H808.286V143H810.286ZM809.286 24.2H763.886V26.2H809.286V24.2ZM764.886 25.2V0.999992H762.886V25.2H764.886ZM763.886 1.99999H882.086V-7.62939e-06H763.886V1.99999ZM881.086 0.999992V25.2H883.086V0.999992H881.086Z" fill="#FFB901" fill-opacity="0.2"/>
</svg>
