<svg width="48" height="48" viewBox="0 0 48 48" fill="none" xmlns="http://www.w3.org/2000/svg">
<g clip-path="url(#clip0_31_14711)">
<path d="M45.0112 33.9814C42.2162 33.0162 42.2574 33.047 41.9582 32.8864C40.9102 32.3274 40.2392 31.2314 40.2382 30.0234C42.3882 29.1284 43.9002 27.0054 43.9002 24.5304V24.3474C44.7252 24.3484 45.3962 23.6804 45.3962 22.8554V17.2094C45.3982 14.5833 43.2732 12.4528 40.6472 12.4509H36.6062C34.6632 12.4499 32.9142 13.6314 32.1912 15.4354C31.3002 15.4344 30.5782 16.1554 30.5762 17.0474C30.5762 17.0474 30.5732 22.6884 30.5722 22.8724C30.5722 23.6644 31.2062 24.3104 32.0002 24.3394C32.0002 27.0353 33.5569 29.1352 35.6622 30.0224C35.661 31.4257 34.7619 32.6482 33.4722 33.0914C33.3332 33.1394 30.9602 33.9574 30.8862 33.9824C29.5782 34.4364 28.7002 35.6684 28.7002 37.0534V39.4484C28.7002 39.8902 29.0584 40.2484 29.5002 40.2484H46.4002C46.842 40.2484 47.2002 39.8902 47.2002 39.4484V37.0534C47.2002 35.6675 46.3205 34.4336 45.0112 33.9814Z" fill="#FFF1BD"/>
<path d="M37.8823 29.2979C38.5779 29.481 38.4145 30.5067 37.6958 30.4766C34.4896 30.3423 32 27.6548 32 24.4555V21.4514C32 21.2824 32.1041 21.1304 32.2621 21.0734C32.3589 21.0385 32.4532 21.0004 32.545 20.9591C32.9463 20.7787 33.4005 21.062 33.4003 21.502V23.4555C33.4003 26.3805 35.3948 28.6431 37.8823 29.2979Z" fill="#FFFCF0"/>
<path d="M39.8087 31.7843C38.608 32.1791 37.2865 32.18 36.0898 31.7839C35.6865 31.6504 35.4577 31.2304 35.5625 30.8187C35.6278 30.5623 35.6621 30.2954 35.6621 30.0225C37.0766 30.6183 38.7412 30.6489 40.2381 30.0235C40.2381 30.2957 40.2723 30.5623 40.3374 30.8184C40.4422 31.2308 40.2129 31.6514 39.8087 31.7843Z" fill="#FFE37B"/>
<path d="M47.2002 37.0534V39.4484C47.2002 39.8902 46.842 40.2484 46.4002 40.2484H29.5002C29.0584 40.2484 28.7002 39.8902 28.7002 39.4484V37.0534C28.7002 35.6684 29.5763 34.431 30.8862 33.9824C33.7486 33.0021 33.6661 33.0323 33.9312 32.8924C34.6252 34.4614 36.1952 35.5064 37.9432 35.5064C39.6912 35.5064 41.2612 34.4614 41.9552 32.8924L41.9582 32.8864C42.2573 33.047 42.1711 33.0007 45.0112 33.9814C46.3205 34.4336 47.2002 35.6674 47.2002 37.0534Z" fill="#FFE37B"/>
<path d="M43.4477 33.9669C42.6055 35.2976 41.1247 36.0488 39.6098 36.0048C39.1643 35.9918 39.064 35.3854 39.4809 35.2278C40.5533 34.8222 41.4664 33.9969 41.9549 32.8925L41.9579 32.8865C42.2135 33.0237 42.3176 33.0551 43.2406 33.3721C43.4859 33.4563 43.5864 33.7477 43.4477 33.9669Z" fill="#FFF1BD"/>
<path d="M34.1076 33.2461C34.2894 33.5728 34.1334 33.984 33.78 34.1059C33.2245 34.2975 32.7195 34.4714 32.6862 34.4825C31.3782 34.9365 30.4946 36.1685 30.5002 37.5535C30.5049 38.7078 30.5003 39.3156 30.4985 39.6622C30.4968 39.9853 30.2394 40.2513 29.9164 40.2582C29.3654 40.2699 28.7002 40.195 28.7002 39.4485V37.0535C28.7002 35.6685 29.5782 34.4365 30.8862 33.9825C30.9602 33.9575 33.3332 33.1395 33.4722 33.0915C33.6322 33.0365 33.7852 32.9695 33.9312 32.8925C33.9849 33.0135 34.0438 33.1315 34.1076 33.2461Z" fill="#FFF1BD"/>
<path d="M40.6469 12.4509C43.2729 12.4529 45.3979 14.5834 45.3959 17.2094V22.8554C45.3959 23.6804 44.7249 24.3484 43.8999 24.3474V21.6038C43.8999 21.369 43.6983 21.1847 43.4646 21.2075C40.4565 21.5009 37.4905 20.7157 35.0386 18.9839C34.839 18.8429 34.5628 18.9102 34.4516 19.1277C33.9771 20.0561 33.2055 20.7342 32.2619 21.0734C32.1035 21.1303 31.9998 21.2831 31.9998 21.4514V24.3395C31.2058 24.3105 30.5718 23.6645 30.5718 22.8725C30.5728 22.6885 30.5758 17.0475 30.5758 17.0475C30.5778 16.1555 31.2998 15.4345 32.1908 15.4355C32.9138 13.6315 34.6628 12.45 36.6058 12.451L40.6469 12.4509Z" fill="#FFE37B"/>
<path d="M40.8211 12.4557C41.4687 12.4796 41.4444 13.4536 40.7963 13.456C40.224 13.4581 39.5112 13.4539 38.6058 13.4494C36.7583 13.4402 35.0862 14.518 34.3048 16.1739C34.2329 16.3263 34.0899 16.4296 33.9236 16.4571C33.1598 16.5835 32.5766 17.2465 32.5748 18.0474V20.9453C32.4658 20.9953 32.3609 21.0372 32.2619 21.0733C32.1039 21.1303 31.9998 21.2823 31.9998 21.4513V24.3394C31.2058 24.3104 30.5718 23.6644 30.5718 22.8724C30.5728 22.6884 30.5758 17.0474 30.5758 17.0474C30.5778 16.1554 31.2998 15.4344 32.1908 15.4354C32.9138 13.6314 34.6628 12.4499 36.6058 12.4509C36.6058 12.4509 40.7632 12.4536 40.8211 12.4557Z" fill="#FFF1BD"/>
<path d="M17.146 33.9814C14.351 33.0162 14.3922 33.047 14.093 32.8864C13.045 32.3274 12.374 31.2314 12.373 30.0234C14.523 29.1284 16.035 27.0054 16.035 24.5304V24.3474C16.86 24.3484 17.531 23.6804 17.531 22.8554V17.2094C17.533 14.5833 15.408 12.4528 12.782 12.4509H8.74096C6.79796 12.4499 5.04896 13.6314 4.32596 15.4354C3.43496 15.4344 2.71296 16.1554 2.71096 17.0474C2.71096 17.0474 2.70796 22.6884 2.70696 22.8724C2.70696 23.6644 3.34096 24.3104 4.13496 24.3394C4.13496 27.0353 5.69166 29.1352 7.79696 30.0224C7.79576 31.4257 6.89666 32.6482 5.60696 33.0914C5.46796 33.1394 3.09496 33.9574 3.02096 33.9824C1.71296 34.4364 0.834961 35.6684 0.834961 37.0534V39.4484C0.834961 39.8902 1.19316 40.2484 1.63496 40.2484H18.535C18.9768 40.2484 19.335 39.8902 19.335 39.4484V37.0534C19.335 35.6675 18.4553 34.4336 17.146 33.9814Z" fill="#FFF1BD"/>
<path d="M10.0172 29.2979C10.7128 29.481 10.5494 30.5067 9.83067 30.4766C6.62437 30.3424 4.13477 27.6548 4.13477 24.4555V21.4514C4.13477 21.2824 4.23887 21.1304 4.39687 21.0734C4.49367 21.0385 4.58797 21.0004 4.67977 20.9591C5.08107 20.7787 5.53527 21.062 5.53507 21.502V23.4555C5.53517 26.3805 7.52967 28.6431 10.0172 29.2979Z" fill="#FFFCF0"/>
<path d="M11.9434 31.7843C10.7427 32.1791 9.42122 32.18 8.22452 31.7839C7.82122 31.6504 7.59242 31.2304 7.69722 30.8187C7.76252 30.5623 7.79682 30.2954 7.79682 30.0225C9.21132 30.6183 10.8759 30.6489 12.3728 30.0235C12.3728 30.2957 12.407 30.5623 12.4721 30.8184C12.5769 31.2308 12.3476 31.6514 11.9434 31.7843Z" fill="#FFE37B"/>
<path d="M19.335 37.0534V39.4484C19.335 39.8902 18.9768 40.2484 18.535 40.2484H1.63496C1.19316 40.2484 0.834961 39.8902 0.834961 39.4484V37.0534C0.834961 35.6684 1.71106 34.431 3.02096 33.9824C5.88336 33.0021 5.80086 33.0323 6.06596 32.8924C6.75996 34.4614 8.32996 35.5064 10.078 35.5064C11.826 35.5064 13.396 34.4614 14.09 32.8924L14.093 32.8864C14.3921 33.047 14.3059 33.0007 17.146 33.9814C18.4553 34.4336 19.335 35.6674 19.335 37.0534Z" fill="#FFF1BD"/>
<path d="M15.583 33.9669C14.7408 35.2976 13.26 36.0488 11.7451 36.0048C11.2996 35.9918 11.1993 35.3854 11.6162 35.2278C12.6886 34.8222 13.6017 33.9969 14.0902 32.8925L14.0932 32.8865C14.3488 33.0237 14.4529 33.0551 15.3759 33.3721C15.6212 33.4563 15.7217 33.7477 15.583 33.9669Z" fill="#FFFCF0"/>
<path d="M6.24236 33.2461C6.42416 33.5728 6.26816 33.984 5.91476 34.1059C5.35926 34.2975 4.85426 34.4714 4.82096 34.4825C3.51296 34.9365 2.62936 36.1685 2.63496 37.5535C2.63966 38.7078 2.63506 39.3156 2.63326 39.6622C2.63156 39.9853 2.37416 40.2513 2.05116 40.2582C1.50016 40.2699 0.834961 40.195 0.834961 39.4485V37.0535C0.834961 35.6685 1.71296 34.4365 3.02096 33.9825C3.09496 33.9575 5.46796 33.1395 5.60696 33.0915C5.76696 33.0365 5.91996 32.9695 6.06596 32.8925C6.11966 33.0135 6.17856 33.1315 6.24236 33.2461Z" fill="#FFFCF0"/>
<path d="M12.7821 12.4509C15.4081 12.4529 17.5331 14.5834 17.5311 17.2094V22.8554C17.5311 23.6804 16.8601 24.3484 16.0351 24.3474V21.6038C16.0351 21.369 15.8335 21.1847 15.5998 21.2075C12.5917 21.5009 9.62573 20.7157 7.17383 18.9839C6.97423 18.8429 6.69803 18.9102 6.58683 19.1277C6.11233 20.0561 5.34073 20.7342 4.39713 21.0734C4.23873 21.1303 4.13503 21.2831 4.13503 21.4514V24.3395C3.34103 24.3105 2.70703 23.6645 2.70703 22.8725C2.70803 22.6885 2.71103 17.0475 2.71103 17.0475C2.71303 16.1555 3.43503 15.4345 4.32603 15.4355C5.04903 13.6315 6.79803 12.45 8.74103 12.451L12.7821 12.4509Z" fill="#FFE37B"/>
<path d="M12.9563 12.4557C13.6039 12.4796 13.5796 13.4536 12.9315 13.456C12.3592 13.4581 11.6464 13.4539 10.741 13.4494C8.89353 13.4402 7.22143 14.518 6.44003 16.1739C6.36813 16.3263 6.22513 16.4296 6.05883 16.4571C5.29503 16.5835 4.71183 17.2465 4.71003 18.0474V20.9453C4.60103 20.9953 4.49613 21.0372 4.39713 21.0733C4.23913 21.1303 4.13503 21.2823 4.13503 21.4513V24.3394C3.34103 24.3104 2.70703 23.6644 2.70703 22.8724C2.70803 22.6884 2.71103 17.0474 2.71103 17.0474C2.71303 16.1554 3.43503 15.4344 4.32603 15.4354C5.04903 13.6314 6.79803 12.4499 8.74103 12.4509C8.74103 12.4509 12.8985 12.4536 12.9563 12.4557Z" fill="#FFF1BD"/>
<path d="M32.2512 32.9375C32.2412 32.9375 29.8514 32.1068 29.2312 31.8965C27.6769 31.3565 26.6752 29.9074 26.6752 28.3115L26.6722 28.3035C29.1582 27.2445 30.9002 24.7785 30.9002 21.9065V21.6475C31.8902 21.6485 32.6952 20.8465 32.6962 19.8565V13.3095C32.6982 10.2425 30.2152 7.75296 27.1482 7.75196H22.4292C20.1582 7.74996 18.1152 9.12946 17.2712 11.2375C16.2322 11.2365 15.3882 12.0775 15.3852 13.1165C15.3852 13.1165 15.3812 19.6145 15.3802 19.9245C15.3802 20.8335 16.0952 21.5785 17.0002 21.6355V21.8285C17.0002 24.7265 18.7582 27.2915 21.3242 28.3445C21.3132 29.7435 20.5322 31.0115 19.3152 31.6585C18.9044 31.8795 18.8453 31.8592 15.7562 32.9355C15.7542 32.9365 15.7512 32.9375 15.7492 32.9375C14.2242 33.4665 13.2002 34.9045 13.2002 36.5205V39.4485C13.2002 39.8903 13.5584 40.2485 14.0002 40.2485H34.0002C34.442 40.2485 34.8002 39.8903 34.8002 39.4485V36.5205C34.8002 34.9045 33.7762 33.4665 32.2512 32.9375Z" fill="#FFF1BD"/>
<path d="M22.8578 27.1664C23.7314 27.5587 23.2776 28.8926 22.3455 28.6726C19.2316 27.9377 17 25.0947 17 21.8284V18.2574C17 17.9544 17.2029 17.913 17.5876 17.7517C18.1158 17.5303 18.6996 17.9137 18.7002 18.4864V20.7284C18.6985 23.7281 20.4869 26.1017 22.8578 27.1664Z" fill="#FFFCF0"/>
<path d="M26.2298 29.9739C24.8277 30.4604 23.2618 30.4958 21.7784 30.0096C21.3933 29.8834 21.1596 29.4883 21.2429 29.0918C21.2939 28.8491 21.3216 28.599 21.3237 28.3445C22.9756 29.0247 24.9314 29.043 26.6717 28.3035C26.6863 28.3424 26.6558 28.6027 26.751 29.0694C26.8302 29.4572 26.6038 29.8441 26.2298 29.9739Z" fill="#FFE37B"/>
<path d="M34.8002 36.5204V39.4484C34.8002 39.8902 34.442 40.2484 34.0002 40.2484H14.0002C13.5584 40.2484 13.2002 39.8902 13.2002 39.4484V36.5204C13.2002 34.9044 14.2242 33.4664 15.7492 32.9374C15.7596 32.9374 18.0978 32.1245 18.7692 31.8965C18.9592 31.8305 19.1422 31.7514 19.3152 31.6584L19.3182 31.6644C20.1282 33.4954 21.9602 34.7154 24.0002 34.7154C26.0402 34.7154 27.8722 33.4954 28.6822 31.6644L28.6852 31.6584C28.8582 31.7514 29.0412 31.8304 29.2312 31.8964C29.9758 32.1493 32.2408 32.9374 32.2512 32.9374C33.7762 33.4664 34.8002 34.9044 34.8002 36.5204Z" fill="#FFF1BD"/>
<path d="M19.5077 32.0483C19.6873 32.3767 19.5345 32.787 19.1806 32.909C17.7393 33.4058 17.6593 33.4374 17.6493 33.4374C16.1243 33.9664 15.0949 35.4044 15.1003 37.0204C15.1053 38.5079 15.0995 39.2502 15.0982 39.6512C15.0971 39.9817 14.8288 40.2484 14.4982 40.2484H14.0002C13.5584 40.2484 13.2002 39.8902 13.2002 39.4484V36.5204C13.2002 34.9044 14.2242 33.4664 15.7492 32.9374C15.7592 32.9374 18.149 32.1067 18.7692 31.8965C18.9592 31.8305 19.1422 31.7515 19.3152 31.6584C19.3299 31.688 19.3886 31.8307 19.5077 32.0483Z" fill="#FFFCF0"/>
<path d="M30.2183 32.779C29.6159 33.6368 28.0706 35.4235 25.696 35.2689C25.2607 35.2406 25.1871 34.6244 25.6023 34.4906C27.807 33.7804 28.6778 31.667 28.6852 31.6584C28.9878 31.8212 29.1523 31.8715 30.0209 32.1687C30.2739 32.2552 30.3719 32.5601 30.2183 32.779Z" fill="#FFFCF0"/>
<path d="M27.1479 7.75193C30.2149 7.75293 32.6979 10.2424 32.6959 13.3094V19.8564C32.6949 20.8464 31.8899 21.6484 30.8999 21.6474V18.4139C30.8999 18.1783 30.697 17.9937 30.4626 18.0177C26.7591 18.3967 23.2726 17.3724 20.484 15.3806C20.2857 15.239 20.0062 15.3082 19.8986 15.5267C19.3642 16.6119 18.4652 17.4622 17.2673 17.8815C17.1071 17.9376 16.9999 18.0876 16.9999 18.2573V21.6353C16.0949 21.5783 15.3799 20.8333 15.3799 19.9243C15.3809 19.6143 15.3849 13.1163 15.3849 13.1163C15.3879 12.0773 16.2319 11.2363 17.2709 11.2373C18.1149 9.12933 20.1579 7.74983 22.4289 7.75183L27.1479 7.75193Z" fill="#FFE37B"/>
<path d="M27.3491 7.75696C28.1295 7.78476 28.1057 8.95496 27.3248 8.95966C26.6264 8.96386 25.7522 8.95806 24.6289 8.95046C22.4738 8.93576 20.5239 10.1922 19.6093 12.1207C19.5219 12.3049 19.3502 12.4302 19.1492 12.4646C18.2631 12.6163 17.5866 13.3872 17.5839 14.3165V17.7575C17.4751 17.805 17.3693 17.8456 17.2702 17.8804C17.1091 17.9369 16.9999 18.0868 16.9999 18.2575V21.6355C16.0949 21.5785 15.3799 20.8335 15.3799 19.9245C15.3809 19.6145 15.3849 13.1165 15.3849 13.1165C15.3879 12.0775 16.2319 11.2365 17.2709 11.2375C18.1149 9.12946 20.1579 7.74996 22.4289 7.75196C22.4288 7.75186 27.2823 7.75456 27.3491 7.75696Z" fill="#FFF1BD"/>
<path d="M30.4065 26.1943C30.6513 25.8264 30.5515 25.3298 30.1836 25.0851C29.8154 24.8401 29.319 24.9401 29.0744 25.308C27.4742 27.7131 24.4479 28.6534 21.8115 27.6775C21.7014 27.5928 21.569 27.5362 21.4243 27.5181C19.2697 26.545 17.8 24.3529 17.8 21.8281V18.5347C18.8853 18.0894 19.7861 17.3077 20.3934 16.2911C23.2581 18.2166 26.6449 19.1107 30.1 18.8529C30.1 21.8506 30.0756 21.7528 30.1628 21.9588C30.2869 22.2524 30.5766 22.4476 30.8995 22.4476C32.3354 22.4476 33.4946 21.2818 33.4956 19.8563V13.3097C33.4977 9.80594 30.6506 6.95364 27.1483 6.95154H22.4249C19.9779 6.95154 17.7918 8.32564 16.7273 10.4923C15.5066 10.7438 14.5848 11.8264 14.584 13.1206V15.7671C14.5837 16.2089 14.9409 16.5674 15.3828 16.5676C15.8244 16.5677 16.1836 16.2098 16.1839 15.7681V13.1215C16.1842 12.5235 16.6717 12.0372 17.2697 12.0372C17.6003 12.0372 17.8926 11.8362 18.0134 11.5348C18.7398 9.72214 20.4711 8.55154 22.4255 8.55154H27.1479C29.7674 8.55314 31.8972 10.6871 31.8957 13.3092V19.8557C31.8955 20.0759 31.8223 20.2789 31.7001 20.4437V17.9662C31.7001 17.4835 31.2748 17.1096 30.7949 17.1731C27.1283 17.6595 23.4991 16.6935 20.5756 14.453C20.1493 14.1263 19.5299 14.3047 19.3407 14.805C18.8925 15.9904 17.9597 16.8621 16.7816 17.1967C16.4376 17.2944 16.2002 17.6086 16.2002 17.9662V21.8281C16.2002 24.8839 17.9208 27.5524 20.4766 28.8384C20.288 29.8919 19.5451 30.7826 18.5078 31.1403C15.1752 32.2894 15.3142 32.2291 14.9703 32.3976L14.7891 32.3352C13.9592 32.049 13.3598 31.3455 13.189 30.5084C14.0598 30.0512 14.8329 29.4014 15.4466 28.5859C15.7123 28.2329 15.6415 27.7313 15.2884 27.4656C14.9353 27.2 14.4338 27.2708 14.1681 27.6238C13.0765 29.0744 11.3521 29.7968 9.6402 29.6646C6.9821 29.4602 4.9 27.172 4.9 24.4554V21.7206C5.7838 21.341 6.5236 20.705 7.0408 19.8853C8.229 20.6687 9.5234 21.2502 10.9004 21.6184C11.3272 21.7327 11.7657 21.479 11.8799 21.0522C11.994 20.6253 11.7405 20.1868 11.3137 20.0727C9.832 19.6766 8.4584 18.9988 7.2312 18.0581C6.8061 17.7322 6.1859 17.9086 5.9962 18.4102C5.6255 19.3906 4.8547 20.1113 3.8815 20.3877C3.7157 20.4348 3.5767 20.533 3.475 20.6613V17.0484C3.4753 16.6043 3.8365 16.2352 4.2898 16.2352C4.6204 16.2352 4.9127 16.0342 5.0335 15.7328C5.6378 14.2246 7.078 13.2507 8.704 13.2507H11.6873C12.1291 13.2507 12.4873 12.8925 12.4873 12.4507C12.4873 12.0089 12.1291 11.6507 11.6873 11.6507H8.7033C6.5833 11.6507 4.6871 12.8309 3.7475 14.6961C2.6973 14.9359 1.8747 15.8835 1.8743 17.0475V22.8722C1.8737 23.8358 2.4688 24.6543 3.3222 24.9837C3.5054 27.3597 4.9104 29.4249 6.9135 30.4967C6.7459 31.3389 6.1449 32.0475 5.3112 32.335L2.7276 33.2258C1.0961 33.7894 0 35.3274 0 37.0537V40.2484C0 40.6902 0.3582 41.0484 0.8 41.0484C1.2418 41.0484 1.6 40.6902 1.6 40.2484V37.0537C1.6 36.009 2.2636 35.0783 3.2512 34.7378C3.2512 34.7278 3.2252 34.7464 5.6794 33.9005C6.5556 35.2835 8.0382 36.1811 9.7042 36.2948C10.1438 36.3249 10.5267 35.993 10.5569 35.5511C10.587 35.1104 10.2541 34.7285 9.8133 34.6985C8.7006 34.6225 7.7073 34.0398 7.0946 33.1383C7.7355 32.6073 8.201 31.888 8.4206 31.0795C9.5012 31.3509 10.6221 31.3429 11.6799 31.0813C11.9558 32.0954 12.6185 32.969 13.5289 33.5065C12.818 34.324 12.4 35.3861 12.4 36.5204V40.2484C12.4 40.6902 12.7582 41.0484 13.2 41.0484C13.6418 41.0484 14 40.6902 14 40.2484V36.5204C14 35.2453 14.8092 34.1093 16.014 33.6926L19.0294 32.6529C20.5253 32.1371 21.6242 30.899 21.9913 29.4095C25.1449 30.2242 28.5409 28.9984 30.4065 26.1943Z" fill="#FF9900"/>
<path d="M45.2718 33.2257L42.6889 32.3352C41.8592 32.0491 41.26 31.3459 41.0889 30.5092C43.2174 29.3856 44.5182 27.2709 44.6807 25.0097C45.5772 24.6863 46.1956 23.8398 46.1962 22.8553V17.2097C46.1982 14.1415 43.7176 11.6511 40.6475 11.6506C36.4002 11.6499 36.4211 11.642 36.078 11.6748C35.6382 11.7168 35.3155 12.1069 35.3573 12.5468C35.399 12.9866 35.7878 13.3097 36.2294 13.2676C36.466 13.245 36.3423 13.2499 40.647 13.2507C42.8255 13.2511 44.5977 15.0176 44.5963 17.2093V20.7646C44.4309 20.4717 44.1101 20.3222 43.7949 20.3644C41.3275 20.6915 38.8767 20.2467 36.7071 19.0778C36.3181 18.8682 35.8328 19.0136 35.6233 19.4026C35.4137 19.7916 35.5591 20.2768 35.9481 20.4864C38.1502 21.6728 40.6052 22.2039 43.1001 22.0402V24.5306C43.1001 25.9606 42.498 27.3382 41.4481 28.3104C39.2154 30.3777 35.6391 30.095 33.7988 27.5468C33.5402 27.1887 33.0402 27.1076 32.6819 27.3666C32.3237 27.6252 32.243 28.1253 32.5017 28.4835C33.1188 29.3382 33.9127 30.0219 34.8129 30.5004C34.6443 31.341 34.0438 32.0481 33.2113 32.3352L33.0299 32.3977C32.6865 32.2294 32.8196 32.2873 29.4922 31.1403C29.051 30.9882 28.6463 30.7313 28.322 30.3974C28.0143 30.0807 27.5078 30.0731 27.1907 30.381C26.8738 30.6888 26.8665 31.1954 27.1743 31.5123C27.3179 31.6602 27.4727 31.7968 27.6352 31.9239C26.5811 33.5606 24.4964 34.3284 22.612 33.6848C22.1936 33.5418 21.7391 33.7651 21.5964 34.1832C21.4536 34.6013 21.6767 35.0561 22.0948 35.1988C24.7492 36.1055 27.6281 35.0081 29.0502 32.6802L31.9831 33.6916C33.1894 34.1075 34.0001 35.2444 34.0001 36.5205V40.2485C34.0001 40.6903 34.3583 41.0485 34.8001 41.0485C35.2419 41.0485 35.6001 40.6903 35.6001 40.2485V36.5205C35.6001 35.3861 35.1822 34.3241 34.4712 33.5066C35.3815 32.9692 36.0442 32.0957 36.3202 31.0817C37.3817 31.3466 38.5121 31.3476 39.5806 31.084C39.8007 31.8907 40.2657 32.6084 40.9055 33.1384C40.2928 34.0399 39.2994 34.6226 38.1868 34.6986C37.746 34.7287 37.4131 35.1105 37.4431 35.5512C37.4732 35.9924 37.8556 36.3251 38.2957 36.2949C39.9616 36.1811 41.4443 35.2836 42.3205 33.9007C42.3205 33.9007 44.7444 34.7363 44.7488 34.7379C45.7364 35.0783 46.4 36.009 46.4 37.0537V40.2484C46.4 40.6902 46.7582 41.0484 47.2 41.0484C47.6418 41.0484 48 40.6902 48 40.2484V37.0537C48 35.3272 46.9036 33.7891 45.2718 33.2257Z" fill="#FF9900"/>
</g>
<defs>
<clipPath id="clip0_31_14711">
<rect width="48" height="48" fill="white"/>
</clipPath>
</defs>
</svg>
